<?xml version="1.0" encoding="UTF-8" standalone="no"?>
<!-- Created with Inkscape (http://www.inkscape.org/) -->

<svg
   xmlns:ns0="http://www.iki.fi/pav/software/textext/"
   xmlns:dc="http://purl.org/dc/elements/1.1/"
   xmlns:cc="http://creativecommons.org/ns#"
   xmlns:rdf="http://www.w3.org/1999/02/22-rdf-syntax-ns#"
   xmlns:svg="http://www.w3.org/2000/svg"
   xmlns="http://www.w3.org/2000/svg"
   xmlns:xlink="http://www.w3.org/1999/xlink"
   xmlns:sodipodi="http://sodipodi.sourceforge.net/DTD/sodipodi-0.dtd"
   xmlns:inkscape="http://www.inkscape.org/namespaces/inkscape"
   width="200.40787mm"
   height="134.63765mm"
   viewBox="0 0 200.40787 134.63765"
   version="1.1"
   id="svg8"
   inkscape:version="0.92.2 (5c3e80d, 2017-08-06)"
   sodipodi:docname="potential_2.svg">
  <defs
     id="defs2">
    <g
       id="g4017">
      <symbol
         overflow="visible"
         id="glyph0-0"
         style="overflow:visible">
        <path
           style="stroke:none"
           d="m 1.3125,0 5.707031,-16.796875 h 7.875 L 9.1875,0 Z m 1.757813,-1.3125 h 5.25 l 4.816406,-14.171875 h -5.25 z m 0,0"
           id="path3942"
           inkscape:connector-curvature="0" />
      </symbol>
      <symbol
         overflow="visible"
         id="glyph0-1"
         style="overflow:visible">
        <path
           style="stroke:none"
           d="M 11.761719,-1.507813 10.921875,0 H 10.304688 C 9.996094,0 9.726563,-0.015625 9.492188,-0.0546875 9.257813,-0.0898438 9.066406,-0.164063 8.921875,-0.277344 8.773438,-0.382813 8.675781,-0.539063 8.625,-0.746094 8.574219,-0.949219 8.578125,-1.222656 8.640625,-1.558594 L 9.808594,-8.316406 2.039063,0 H 0 L 10.140625,-10.5625 10.5,-12.582031 c 0.05078,-0.289063 0.02344,-0.527344 -0.08203,-0.710938 -0.10547,-0.179687 -0.316407,-0.269531 -0.628907,-0.273437 H 9.121094 l 0.839844,-1.527344 c 0.1875,-0.03906 0.375,-0.06641 0.566406,-0.08594 0.183594,-0.01563 0.367187,-0.02344 0.546875,-0.02734 0.40625,0.0039 0.710937,0.0625 0.921875,0.179687 0.203125,0.121094 0.339844,0.289063 0.402344,0.503906 0.0625,0.214844 0.07813,0.46875 0.05469,0.757813 -0.03125,0.296875 -0.07031,0.609375 -0.117187,0.9375 l -1.542969,10.460937 c -0.03125,0.203125 -0.03516,0.363282 -0.0078,0.480469 0.02344,0.117188 0.07813,0.203125 0.164063,0.257813 0.08203,0.054687 0.191406,0.089843 0.332031,0.101562 0.132813,0.015625 0.292969,0.023438 0.480469,0.019531 z m 0,0"
           id="path3945"
           inkscape:connector-curvature="0" />
      </symbol>
      <symbol
         overflow="visible"
         id="glyph1-0"
         style="overflow:visible">
        <path
           style="stroke:none"
           d="m 2.125,0 v -10.625 h 8.5 V 0 Z m 0.265625,-0.265625 h 7.96875 v -10.09375 h -7.96875 z m 0,0"
           id="path3948"
           inkscape:connector-curvature="0" />
      </symbol>
      <symbol
         overflow="visible"
         id="glyph1-1"
         style="overflow:visible">
        <path
           style="stroke:none"
           d="m 4.09375,0 1.925781,-9.1875 c -0.835937,0.652344 -2.003906,1.175781 -3.503906,1.566406 l 0.28125,-1.359375 c 0.742188,-0.296875 1.480469,-0.6875 2.210938,-1.171875 0.726562,-0.480469 1.273437,-0.902344 1.640625,-1.261719 0.21875,-0.21875 0.429687,-0.484375 0.632812,-0.804687 H 8.152344 L 5.601563,0 Z m 0,0"
           id="path3951"
           inkscape:connector-curvature="0" />
      </symbol>
      <symbol
         overflow="visible"
         id="glyph1-2"
         style="overflow:visible">
        <path
           style="stroke:none"
           d="m 5.078125,0 0.65625,-3.105469 H 0.773438 l 0.3125,-1.484375 6.816406,-7.578125 H 9.132813 L 7.511719,-4.433594 H 9.222656 L 8.949219,-3.105469 H 7.238281 L 6.582031,0 Z m 0.929688,-4.433594 1.0625,-5.078125 -4.53125,5.078125 z m 0,0"
           id="path3954"
           inkscape:connector-curvature="0" />
      </symbol>
      <symbol
         overflow="visible"
         id="glyph2-0"
         style="overflow:visible">
        <path
           style="stroke:none"
           d="m 1.0625,0 4.621094,-13.597656 h 6.375 L 7.4375,0 Z m 1.421875,-1.0625 h 4.25 l 3.898438,-11.472656 h -4.25 z m 0,0"
           id="path3957"
           inkscape:connector-curvature="0" />
      </symbol>
      <symbol
         overflow="visible"
         id="glyph2-1"
         style="overflow:visible">
        <path
           style="stroke:none"
           d="M 10.25,-3.710938 H 6.921875 L 5.789063,-0.382813 H 4.394531 L 5.527344,-3.710938 H 2.199219 L 2.671875,-5.105469 H 6 l 1.132813,-3.328125 h 1.394531 l -1.132813,3.328125 h 3.332032 z m 0,0"
           id="path3960"
           inkscape:connector-curvature="0" />
      </symbol>
      <symbol
         overflow="visible"
         id="glyph2-2"
         style="overflow:visible">
        <path
           style="stroke:none"
           d="M 9.519531,-1.21875 8.839844,0 H 8.34375 C 8.09375,0 7.871094,-0.0117188 7.683594,-0.0429688 7.492188,-0.0703125 7.339844,-0.132813 7.222656,-0.222656 7.101563,-0.308594 7.019531,-0.433594 6.980469,-0.605469 6.9375,-0.769531 6.945313,-0.988281 6.996094,-1.261719 L 7.941406,-6.730469 1.652344,0 H 0 L 8.210938,-8.550781 8.5,-10.183594 c 0.039063,-0.238281 0.015625,-0.429687 -0.066406,-0.578125 -0.089844,-0.144531 -0.257813,-0.21875 -0.507813,-0.21875 H 7.382813 L 8.0625,-12.21875 c 0.15625,-0.03125 0.308594,-0.05469 0.460938,-0.07031 0.148437,-0.0078 0.296875,-0.01563 0.441406,-0.01953 0.328125,0.0039 0.574219,0.05078 0.746094,0.144531 0.164062,0.09766 0.273437,0.234375 0.328125,0.40625 0.04687,0.175782 0.0625,0.382813 0.04297,0.617188 -0.02344,0.238281 -0.05469,0.488281 -0.09375,0.757812 l -1.25,8.464844 C 8.71094,-1.74609 8.71094,-1.617184 8.730473,-1.52734 c 0.019531,0.097656 0.0625,0.167969 0.132812,0.207031 0.066407,0.046875 0.15625,0.074219 0.269532,0.085938 0.105468,0.011719 0.234375,0.015625 0.386718,0.015625 z m 0,0"
           id="path3963"
           inkscape:connector-curvature="0" />
      </symbol>
      <symbol
         overflow="visible"
         id="glyph3-0"
         style="overflow:visible">
        <path
           style="stroke:none"
           d="M 1.507813,0 V -7.542969 H 7.542969 V 0 Z m 0.1875,-0.1875 H 7.355469 V -7.355469 H 1.695313 Z m 0,0"
           id="path3966"
           inkscape:connector-curvature="0" />
      </symbol>
      <symbol
         overflow="visible"
         id="glyph3-1"
         style="overflow:visible">
        <path
           style="stroke:none"
           d="M 0.707031,0 C 0.8125,-0.515625 0.964844,-0.945313 1.164063,-1.292969 1.355469,-1.640625 1.613281,-1.972656 1.9375,-2.285156 2.257813,-2.597656 2.878906,-3.121094 3.800781,-3.855469 4.355469,-4.296875 4.738281,-4.625 4.945313,-4.839844 5.238281,-5.144531 5.449219,-5.441406 5.585938,-5.738281 5.671875,-5.933594 5.71875,-6.152344 5.722656,-6.394531 5.71875,-6.785156 5.578125,-7.121094 5.300781,-7.402344 5.015625,-7.675781 4.671875,-7.816406 4.265625,-7.820313 3.859375,-7.816406 3.503906,-7.675781 3.207031,-7.398438 2.902344,-7.113281 2.6875,-6.664063 2.558594,-6.046875 L 1.515625,-6.199219 c 0.097656,-0.765625 0.394531,-1.367187 0.890625,-1.8125 0.492188,-0.4375 1.105469,-0.660156 1.84375,-0.664062 0.484375,0.00391 0.929688,0.105468 1.332031,0.308593 0.398438,0.203125 0.699219,0.492188 0.898438,0.859375 0.199219,0.375 0.296875,0.753907 0.300781,1.144532 -0.00391,0.574218 -0.207031,1.128906 -0.609375,1.65625 C 5.914063,-4.375 5.175781,-3.726563 3.953125,-2.757813 3.425781,-2.339844 3.035156,-1.996094 2.777344,-1.730469 2.519531,-1.460938 2.324219,-1.210938 2.199219,-0.976563 H 6.0625 L 5.859375,0 Z m 0,0"
           id="path3969"
           inkscape:connector-curvature="0" />
      </symbol>
      <symbol
         overflow="visible"
         id="glyph4-0"
         style="overflow:visible">
        <path
           style="stroke:none"
           d="m 1.0625,0 v -13.597656 h 6.375 V 0 Z M 2.125,-1.0625 h 4.25 v -11.472656 h -4.25 z m 0,0"
           id="path3972"
           inkscape:connector-curvature="0" />
      </symbol>
      <symbol
         overflow="visible"
         id="glyph4-1"
         style="overflow:visible">
        <path
           style="stroke:none"
           d="M 7.179688,-15.15625 1.203125,6.324219 H 0 L 5.976563,-15.15625 Z m 0,0"
           id="path3975"
           inkscape:connector-curvature="0" />
      </symbol>
      <symbol
         overflow="visible"
         id="glyph5-0"
         style="overflow:visible">
        <path
           style="stroke:none"
           d="M 3.148438,0 V -15.75 H 15.75 V 0 Z m 0.394531,-0.394531 h 11.8125 v -14.960938 h -11.8125 z m 0,0"
           id="path3978"
           inkscape:connector-curvature="0" />
      </symbol>
      <symbol
         overflow="visible"
         id="glyph5-1"
         style="overflow:visible">
        <path
           style="stroke:none"
           d="M 9.648438,-1.625 C 8.871094,-0.957031 8.128906,-0.472656 7.417969,-0.164063 6.703125,0.140625 5.941406,0.292969 5.132813,0.296875 3.921875,0.292969 2.945313,-0.0585938 2.210938,-0.765625 1.46875,-1.472656 1.101563,-2.382813 1.105469,-3.496094 c -0.00391,-0.726562 0.164062,-1.371094 0.5,-1.933594 0.332031,-0.558593 0.773437,-1.011718 1.324219,-1.355468 0.546875,-0.339844 1.21875,-0.582032 2.015625,-0.734375 0.5,-0.09375 1.449218,-0.171875 2.847656,-0.230469 1.398437,-0.054688 2.402344,-0.203125 3.011719,-0.445313 0.171875,-0.605468 0.257812,-1.109375 0.257812,-1.511718 0,-0.515625 -0.191406,-0.921875 -0.566406,-1.21875 -0.523438,-0.410157 -1.277344,-0.617188 -2.265625,-0.617188 -0.9375,0 -1.703125,0.210938 -2.296875,0.625 C 5.335938,-10.5 4.90625,-9.914063 4.640625,-9.15625 L 2.386719,-9.351563 c 0.453125,-1.296875 1.183594,-2.289062 2.183594,-2.976562 0.996093,-0.6875 2.253906,-1.03125 3.773437,-1.035156 1.613281,0.0039 2.890625,0.390625 3.835938,1.15625 0.722656,0.578125 1.085937,1.324218 1.085937,2.242187 0,0.699219 -0.105469,1.507813 -0.308594,2.421875 l -0.726562,3.25 c -0.234375,1.035156 -0.347656,1.875 -0.34375,2.519531 -0.0039,0.414063 0.08594,1.003907 0.269531,1.773438 h -2.25 C 9.777344,-0.425781 9.691406,-0.964844 9.648438,-1.625 Z m 0.824218,-4.996094 c -0.316406,0.125 -0.648437,0.222656 -1.003906,0.285156 -0.359375,0.070313 -0.957031,0.136719 -1.789062,0.207032 -1.300782,0.117187 -2.214844,0.265625 -2.746094,0.4375 -0.535156,0.179687 -0.9375,0.460937 -1.207031,0.84375 -0.273438,0.390625 -0.410157,0.816406 -0.40625,1.28125 -0.00391,0.625 0.210937,1.136718 0.644531,1.539062 0.429687,0.402344 1.042969,0.605469 1.84375,0.601563 0.734375,0.00391 1.445312,-0.191407 2.125,-0.585938 0.679687,-0.386719 1.214844,-0.929687 1.613281,-1.628906 0.390625,-0.695313 0.699219,-1.691406 0.925781,-2.980469 z m 0,0"
           id="path3981"
           inkscape:connector-curvature="0" />
      </symbol>
      <symbol
         overflow="visible"
         id="glyph6-0"
         style="overflow:visible">
        <path
           style="stroke:none"
           d="m 2.875,0 v -14.375 h 11.5 V 0 Z m 0.359375,-0.359375 h 10.78125 v -13.65625 H 3.234375 Z m 0,0"
           id="path3984"
           inkscape:connector-curvature="0" />
      </symbol>
      <symbol
         overflow="visible"
         id="glyph6-1"
         style="overflow:visible">
        <path
           style="stroke:none"
           d="m 0.765625,0 3.433594,-16.464844 h 2.035156 l -1.226562,5.886719 c 0.644531,-0.585938 1.230468,-1.003906 1.753906,-1.25 0.523437,-0.242188 1.066406,-0.363281 1.636719,-0.367188 1.113281,0.0039 2.046875,0.417969 2.792968,1.246094 0.742188,0.832031 1.113282,2.042969 1.117188,3.628906 -0.0039,1.058594 -0.152344,2.023438 -0.449219,2.898438 -0.300781,0.878906 -0.671875,1.613281 -1.113281,2.207031 -0.441406,0.59375 -0.898438,1.070313 -1.367188,1.425781 C 8.90625,-0.433594 8.421875,-0.171875 7.929688,0.00390625 7.429688,0.179688 6.957031,0.269531 6.503906,0.269531 5.714844,0.269531 5.019531,0.0625 4.425781,-0.351563 3.824219,-0.765625 3.355469,-1.398438 3.019531,-2.257813 L 2.550781,0 Z m 3.007813,-4.898438 -0.011719,0.382813 c 0,1.019531 0.242187,1.796875 0.730469,2.328125 0.484375,0.535156 1.089843,0.800781 1.820312,0.796875 0.707031,0.00391 1.359375,-0.246094 1.957031,-0.746094 0.59375,-0.496094 1.082032,-1.273437 1.464844,-2.332031 0.378906,-1.054688 0.570313,-2.027344 0.574219,-2.921875 -0.0039,-1 -0.246094,-1.777344 -0.726563,-2.332031 -0.484375,-0.550782 -1.078125,-0.828125 -1.789062,-0.832032 -0.734375,0.0039 -1.410156,0.285157 -2.019531,0.847657 -0.617188,0.566406 -1.128907,1.4375 -1.539063,2.609375 -0.308594,0.878906 -0.460937,1.609375 -0.460937,2.199218 z m 0,0"
           id="path3987"
           inkscape:connector-curvature="0" />
      </symbol>
      <symbol
         overflow="visible"
         id="glyph7-0"
         style="overflow:visible">
        <path
           style="stroke:none"
           d="M 2.976563,0 V -14.875 H 14.875 V 0 Z m 0.371093,-0.371094 h 11.15625 V -14.503906 H 3.347656 Z m 0,0"
           id="path3990"
           inkscape:connector-curvature="0" />
      </symbol>
      <symbol
         overflow="visible"
         id="glyph7-1"
         style="overflow:visible">
        <path
           style="stroke:none"
           d="m 9.308594,-4.496094 2.101562,0.21875 c -0.53125,1.542969 -1.28125,2.6875 -2.25,3.433594 C 8.183594,-0.0976563 7.078125,0.273438 5.84375,0.277344 4.5,0.273438 3.414063,-0.15625 2.585938,-1.023438 c -0.835938,-0.863281 -1.25,-2.074218 -1.25,-3.636718 0,-1.34375 0.265625,-2.667969 0.800781,-3.972657 0.535156,-1.296875 1.300781,-2.289062 2.296875,-2.96875 0.992187,-0.679687 2.128906,-1.019531 3.410156,-1.019531 1.324219,0 2.375,0.375 3.148438,1.121094 0.773437,0.75 1.160156,1.738281 1.164062,2.96875 l -2.070312,0.140625 c -0.01172,-0.78125 -0.238282,-1.390625 -0.679688,-1.835938 -0.449219,-0.4375 -1.035156,-0.660156 -1.757812,-0.664062 -0.851563,0.0039 -1.582032,0.273437 -2.199219,0.804687 -0.621094,0.539063 -1.109375,1.347657 -1.457031,2.433594 -0.355469,1.089844 -0.53125,2.140625 -0.527344,3.144531 -0.00391,1.054688 0.230469,1.84375 0.695312,2.371094 0.464844,0.527344 1.035157,0.789063 1.71875,0.789063 0.679688,0 1.332032,-0.257813 1.957032,-0.777344 0.621093,-0.519531 1.113281,-1.308594 1.472656,-2.371094 z m 0,0"
           id="path3993"
           inkscape:connector-curvature="0" />
      </symbol>
      <symbol
         overflow="visible"
         id="glyph7-2"
         style="overflow:visible">
        <path
           style="stroke:none"
           d="M 9.109375,-1.789063 C 7.90625,-0.410156 6.652344,0.273438 5.34375,0.277344 4.171875,0.273438 3.195313,-0.152344 2.421875,-1.015625 1.640625,-1.875 1.253906,-3.128906 1.253906,-4.777344 c 0,-1.5 0.304688,-2.875 0.921875,-4.117187 0.613282,-1.242188 1.386719,-2.171875 2.3125,-2.796875 0.925782,-0.617188 1.851563,-0.929688 2.785157,-0.929688 1.53125,0 2.691406,0.742188 3.476562,2.21875 l 1.394531,-6.632812 h 2.089844 L 10.679688,0 H 8.738281 Z M 3.347656,-5.171875 c -0.00391,0.863281 0.082032,1.542969 0.253907,2.035156 0.167968,0.5 0.457031,0.910156 0.871093,1.238281 0.40625,0.328125 0.898438,0.492188 1.476563,0.492188 0.949219,0 1.816406,-0.496094 2.59375,-1.488281 1.035156,-1.316407 1.550781,-2.941407 1.554687,-4.878907 -0.0039,-0.972656 -0.257812,-1.734375 -0.765625,-2.289062 -0.511718,-0.546875 -1.15625,-0.824219 -1.929687,-0.828125 -0.507813,0.0039 -0.964844,0.117187 -1.378906,0.339844 -0.414063,0.226562 -0.824219,0.609375 -1.230469,1.144531 -0.40625,0.542969 -0.75,1.226562 -1.027344,2.050781 -0.28125,0.832031 -0.421875,1.558594 -0.417969,2.183594 z m 0,0"
           id="path3996"
           inkscape:connector-curvature="0" />
      </symbol>
      <symbol
         overflow="visible"
         id="glyph8-0"
         style="overflow:visible">
        <path
           style="stroke:none"
           d="M 2.800781,0 V -14 H 14 V 0 Z m 0.347657,-0.351563 h 10.5 v -13.296875 h -10.5 z m 0,0"
           id="path3999"
           inkscape:connector-curvature="0" />
      </symbol>
      <symbol
         overflow="visible"
         id="glyph8-1"
         style="overflow:visible">
        <path
           style="stroke:none"
           d="m 0.929688,-7.90625 c -0.003907,-1.890625 0.191406,-3.417969 0.585937,-4.578125 0.386719,-1.152344 0.964844,-2.042969 1.738281,-2.671875 0.765625,-0.625 1.734375,-0.9375 2.902344,-0.941406 0.859375,0.0039 1.613281,0.175781 2.265625,0.519531 0.644531,0.347656 1.179688,0.847656 1.605469,1.5 0.421875,0.652344 0.753906,1.445312 0.996094,2.382812 0.238281,0.9375 0.359375,2.203125 0.363281,3.789063 -0.0039,1.882812 -0.195313,3.398437 -0.582031,4.554687 -0.386719,1.15625 -0.964844,2.050782 -1.734375,2.679688 C 8.300781,-0.0429688 7.328125,0.269531 6.15625,0.273438 4.609375,0.269531 3.394531,-0.28125 2.515625,-1.390625 c -1.0625,-1.328125 -1.589844,-3.5 -1.585937,-6.515625 z m 2.023437,0 c 0,2.632812 0.304688,4.382812 0.921875,5.253906 0.613281,0.875 1.375,1.3125 2.28125,1.308594 0.902344,0.00391 1.664063,-0.433594 2.28125,-1.3125 0.617188,-0.871094 0.925781,-2.621094 0.925781,-5.25 0,-2.636719 -0.308593,-4.390625 -0.925781,-5.261719 -0.617187,-0.863281 -1.386719,-1.296875 -2.300781,-1.300781 -0.90625,0.0039 -1.628906,0.386719 -2.167969,1.148437 -0.679687,0.980469 -1.015625,2.785157 -1.015625,5.414063 z m 0,0"
           id="path4002"
           inkscape:connector-curvature="0" />
      </symbol>
      <symbol
         overflow="visible"
         id="glyph8-2"
         style="overflow:visible">
        <path
           style="stroke:none"
           d="M 8.34375,0 H 6.375 v -12.546875 c -0.476562,0.457031 -1.097656,0.910156 -1.863281,1.359375 -0.769531,0.453125 -1.460938,0.789062 -2.074219,1.015625 v -1.902344 c 1.101563,-0.515625 2.0625,-1.140625 2.886719,-1.878906 0.824219,-0.734375 1.410156,-1.449219 1.753906,-2.144531 H 8.34375 Z m 0,0"
           id="path4005"
           inkscape:connector-curvature="0" />
      </symbol>
      <symbol
         overflow="visible"
         id="glyph9-0"
         style="overflow:visible">
        <path
           style="stroke:none"
           d="M 2.800781,0 V -14 H 14 V 0 Z m 0.347657,-0.351563 h 10.5 v -13.296875 h -10.5 z m 0,0"
           id="path4008"
           inkscape:connector-curvature="0" />
      </symbol>
      <symbol
         overflow="visible"
         id="glyph9-1"
         style="overflow:visible">
        <path
           style="stroke:none"
           d="m 0.742188,0 2.429687,-11.617188 h 1.75 l -0.492187,2.375 c 0.597656,-0.890625 1.179687,-1.554687 1.753906,-1.988281 0.570312,-0.429687 1.15625,-0.644531 1.757812,-0.648437 0.390625,0.0039 0.875,0.144531 1.453125,0.425781 l -0.808593,1.839844 c -0.347657,-0.246094 -0.722657,-0.371094 -1.125,-0.371094 -0.695313,0 -1.40625,0.386719 -2.132813,1.160156 -0.734375,0.773438 -1.304687,2.164063 -1.71875,4.164063 L 2.625,0 Z m 0,0"
           id="path4011"
           inkscape:connector-curvature="0" />
      </symbol>
      <symbol
         overflow="visible"
         id="glyph9-2"
         style="overflow:visible">
        <path
           style="stroke:none"
           d="M 8.671875,-2.101563 C 7.28125,-0.527344 5.855469,0.257813 4.398438,0.261719 3.496094,0.257813 2.769531,0.00390625 2.222656,-0.507813 1.667969,-1.019531 1.394531,-1.648438 1.398438,-2.394531 c -0.00391,-0.488282 0.121093,-1.328125 0.375,-2.515625 l 1.398437,-6.707032 H 5.152344 L 3.597656,-4.1875 c -0.132812,0.621094 -0.199218,1.101562 -0.195312,1.441406 -0.00391,0.441406 0.128906,0.78125 0.398437,1.023438 0.261719,0.246093 0.652344,0.371093 1.175782,0.367187 0.550781,0.00391 1.09375,-0.132812 1.625,-0.402344 0.527343,-0.269531 0.984375,-0.632812 1.367187,-1.09375 0.382813,-0.457031 0.691406,-1 0.933594,-1.632812 0.15625,-0.398438 0.34375,-1.101563 0.558594,-2.109375 l 1.050781,-5.023438 h 1.980469 L 10.0625,0 H 8.234375 Z m 0,0"
           id="path4014"
           inkscape:connector-curvature="0" />
      </symbol>
    </g>
    <clipPath
       id="clip1">
      <path
         d="M 28,34 H 535 V 270 H 28 Z m 0,0"
         id="path4019"
         inkscape:connector-curvature="0" />
    </clipPath>
    <clipPath
       id="clip2">
      <path
         d="m 6,251 h 296 v 15 H 6 Z m 0,0"
         id="path4022"
         inkscape:connector-curvature="0" />
    </clipPath>
    <clipPath
       id="clip3">
      <path
         d="m 6,101 h 134 v 15 H 6 Z m 0,0"
         id="path4025"
         inkscape:connector-curvature="0" />
    </clipPath>
    <clipPath
       id="clip4">
      <path
         d="m 430,78 h 13 v 13 h -13 z m 0,0"
         id="path4028"
         inkscape:connector-curvature="0" />
    </clipPath>
    <clipPath
       id="clip5">
      <path
         d="m 198,185 h 2 v 178 h -2 z m 0,0"
         id="path4031"
         inkscape:connector-curvature="0" />
    </clipPath>
    <clipPath
       id="clip6">
      <path
         d="m 414,187 h 2 v 176 h -2 z m 0,0"
         id="path4034"
         inkscape:connector-curvature="0" />
    </clipPath>
    <clipPath
       id="clip7">
      <path
         d="m 96,187 h 2 v 176 h -2 z m 0,0"
         id="path4037"
         inkscape:connector-curvature="0" />
    </clipPath>
    <clipPath
       id="clip8">
      <path
         d="m 49,186 h 2 v 177 h -2 z m 0,0"
         id="path4040"
         inkscape:connector-curvature="0" />
    </clipPath>
    <clipPath
       id="clip9">
      <path
         d="M 0,8 H 14 V 20 H 0 Z m 0,0"
         id="path4043"
         inkscape:connector-curvature="0" />
    </clipPath>
  </defs>
  <sodipodi:namedview
     id="base"
     pagecolor="#ffffff"
     bordercolor="#666666"
     borderopacity="1.0"
     inkscape:pageopacity="0.0"
     inkscape:pageshadow="2"
     inkscape:zoom="0.98994949"
     inkscape:cx="286.44691"
     inkscape:cy="231.91627"
     inkscape:document-units="mm"
     inkscape:current-layer="g4357"
     showgrid="false"
     inkscape:window-width="1920"
     inkscape:window-height="1017"
     inkscape:window-x="1912"
     inkscape:window-y="-8"
     inkscape:window-maximized="1"
     fit-margin-top="0"
     fit-margin-left="0"
     fit-margin-right="0"
     fit-margin-bottom="0" />
  <metadata
     id="metadata5">
    <rdf:RDF>
      <cc:Work
         rdf:about="">
        <dc:format>image/svg+xml</dc:format>
        <dc:type
           rdf:resource="http://purl.org/dc/dcmitype/StillImage" />
        <dc:title></dc:title>
      </cc:Work>
    </rdf:RDF>
  </metadata>
  <g
     inkscape:label="Layer 1"
     inkscape:groupmode="layer"
     id="layer1"
     transform="translate(-5.251426,-13.21637)">
    <g
       transform="translate(0.80377619,0.88958733)"
       inkscape:label="Layer 1"
       id="layer1-2">
      <g
         transform="translate(4.346729,-3.4599852)"
         id="layer1-1"
         inkscape:label="Layer 1">
        <g
           id="layer1-3"
           inkscape:label="Layer 1"
           transform="translate(-3.8129351,6.6976766)">
          <g
             transform="matrix(0.35277777,0,0,0.35277777,2.7968289,48.087177)"
             id="surface7">
            <g
               transform="translate(12.857143,-118.92857)"
               style="clip-rule:nonzero"
               clip-path="url(#clip1)"
               id="g4050">
              <path
                 inkscape:connector-curvature="0"
                 style="fill:none;stroke:#5c7fb3;stroke-width:2.6565001;stroke-linecap:square;stroke-linejoin:miter;stroke-miterlimit:3.25;stroke-opacity:1"
                 d="m 132.71875,48.398438 0.40234,10.585937 1.28516,29.65625 1.39453,28.082035 1.36719,24.0039 1.27344,19.60547 1.38281,18.59766 1.29297,15.14843 1.26562,13.00782 1.375,12.26953 1.28125,9.90234 1.38672,9.21485 1.30078,7.32421 0.0195,0.10547 0.0195,0.10157 0.0391,0.20703 0.0781,0.40625 0.16016,0.80078 0.3164,1.55469 0.63672,2.92187 0.0234,0.0937 0.0195,0.0937 0.043,0.1875 0.0859,0.37109 0.17187,0.73438 0.34766,1.41016 0.6875,2.61718 0.0195,0.0703 0.0234,0.0742 0.0391,0.14454 0.082,0.28125 0.16016,0.55859 0.32031,1.07812 0.64453,1.99219 0.0234,0.0625 0.0195,0.0625 0.043,0.12891 0.0898,0.25 0.17188,0.48828 0.35156,0.93359 0.0195,0.0547 0.0234,0.0586 0.043,0.10938 0.0859,0.22266 0.17578,0.42968 0.34765,0.81641 0.0234,0.0508 0.0195,0.0469 0.043,0.0976 0.0859,0.1875 0.17187,0.36719 0.34375,0.69922 0.0391,0.0859 0.1289,0.24609 0.17188,0.31641 0.34375,0.59765 0.0195,0.0352 0.0195,0.0312 0.0391,0.0664 0.082,0.12891 0.16016,0.25391 0.31641,0.47265 0.0234,0.0274 0.0195,0.0312 0.11719,0.16406 0.16016,0.21094 0.32031,0.39453 0.0234,0.0234 0.0195,0.0273 0.043,0.0469 0.0859,0.0977 0.17578,0.1875 0.0195,0.0234 0.0234,0.0195 0.043,0.0469 0.0859,0.0859 0.17188,0.16406 0.0234,0.0195 0.0195,0.0195 0.0469,0.0391 0.0859,0.0742 0.17187,0.14062 0.34766,0.25391 0.0195,0.0156 0.0195,0.0117 0.0391,0.0274 0.082,0.0508 0.16015,0.0937 0.0234,0.0117 0.0586,0.0351 0.082,0.0391 0.16016,0.0781 0.0195,0.0117 0.0234,0.008 0.0391,0.0156 0.082,0.0351 0.0781,0.0312 0.082,0.0274 0.0391,0.0156 0.043,0.0117 0.0781,0.0273 0.0234,0.004 0.0195,0.008 0.0391,0.0117 0.082,0.0195 0.0391,0.008 0.0391,0.0117 0.0781,0.0156 0.0234,0.004 0.0586,0.0117 0.0781,0.0117 h 0.0195 l 0.0195,0.004 0.0391,0.004 0.0391,0.008 0.043,0.004 h 0.0195 l 0.0195,0.004 h 0.0391 l 0.0195,0.004 H 159 l 0.0195,0.004 h 0.12109 l 0.0195,0.004 h 0.0586 l 0.0195,-0.004 h 0.0977 l 0.0195,-0.004 h 0.043 l 0.0195,-0.004 h 0.0391 l 0.0391,-0.004 0.0195,-0.004 h 0.0195 l 0.0391,-0.004 0.0391,-0.008 0.043,-0.004 0.0195,-0.004 0.0234,-0.004 0.043,-0.004 0.0195,-0.004 0.0234,-0.004 0.043,-0.008 0.0195,-0.004 0.0234,-0.004 0.043,-0.0117 0.0859,-0.0195 0.0195,-0.004 0.0234,-0.004 0.1289,-0.0351 0.17188,-0.0547 0.0195,-0.008 0.0234,-0.008 0.043,-0.0117 0.0859,-0.0352 0.17188,-0.0664 0.0195,-0.0117 0.0234,-0.008 0.1289,-0.0586 0.17188,-0.0859 0.0391,-0.0234 0.0391,-0.0195 0.082,-0.0469 0.16015,-0.0937 0.32031,-0.20703 0.0195,-0.0117 0.0195,-0.0156 0.043,-0.0273 0.0781,-0.0586 0.16016,-0.1211 0.32031,-0.25781 0.0234,-0.0195 0.0234,-0.0156 0.30079,-0.27343 0.35156,-0.33985 0.0859,-0.0859 0.0859,-0.0937 0.17578,-0.18359 0.34766,-0.39453 0.0195,-0.0234 0.0234,-0.0273 0.043,-0.0508 0.082,-0.10157 0.17187,-0.20703 0.34375,-0.4375 0.67969,-0.94922 0.0234,-0.0273 0.0195,-0.0312 0.11719,-0.17578 0.16015,-0.23828 0.32032,-0.4961 0.63672,-1.04296 1.3789,-2.51954 1.29297,-2.63671 1.39453,-3.13282 1.375,-3.33203 1.27735,-3.30859 1.39062,-3.78125 1.29297,-3.69141 1.27344,-3.74609 1.375,-4.1836 1.28906,-4.0039 1.39453,-4.42188 1.36719,-4.40234 1.27734,-4.14844 1.38281,-4.52734 1.29297,-4.23438 1.26563,-4.14453 1.375,-4.47265 1.28125,-4.14454 1.39062,-4.4414 1.30078,-4.08594 1.26954,-3.94141 1.38281,-4.1875 1.28906,-3.8164 1.39453,-4.02735 1.3711,-3.83203 1.27734,-3.46093 1.38672,-3.61719 1.29687,-3.2461 1.26953,-3.05078 1.375,-3.15625 1.28516,-2.80468 1.39063,-2.8711 1.36718,-2.65234 1.27735,-2.32031 1.38281,-2.34375 1.28906,-2.03125 1.26563,-1.83594 1.375,-1.82422 1.28125,-1.53906 1.38672,-1.5 1.29687,-1.23438 1.27344,-1.0625 0.0195,-0.0156 0.0234,-0.0195 0.043,-0.0312 0.0859,-0.0664 0.17188,-0.12891 0.34375,-0.2539 0.6914,-0.47266 0.0391,-0.0234 0.0391,-0.0273 0.082,-0.0508 0.16016,-0.10156 0.32031,-0.19532 0.64453,-0.36718 0.0234,-0.0117 0.0195,-0.0117 0.043,-0.0234 0.0898,-0.0469 0.17188,-0.0898 0.35156,-0.17187 0.0195,-0.008 0.0234,-0.0117 0.043,-0.0195 0.0859,-0.043 0.17579,-0.0781 0.34765,-0.14844 0.0234,-0.0117 0.0195,-0.008 0.043,-0.0195 0.0859,-0.0312 0.17187,-0.0703 0.33985,-0.125 0.0234,-0.008 0.0195,-0.008 0.12891,-0.0469 0.17188,-0.0586 0.34375,-0.10547 0.0195,-0.008 0.0195,-0.004 0.0391,-0.0117 0.082,-0.0234 0.15625,-0.0469 0.32031,-0.082 0.0391,-0.008 0.043,-0.0117 0.0781,-0.0195 0.16016,-0.0352 0.32031,-0.0664 0.0195,-0.004 0.0234,-0.004 0.30078,-0.0547 0.0234,-0.004 0.0195,-0.004 0.043,-0.008 0.0898,-0.0117 0.17188,-0.0234 0.0195,-0.004 0.0234,-0.004 0.043,-0.004 0.0859,-0.0117 0.0234,-0.004 0.0195,-0.004 0.043,-0.004 0.0898,-0.008 0.0195,-0.004 0.0234,-0.004 0.30078,-0.0273 h 0.0195 l 0.0234,-0.004 0.0391,-0.004 0.082,-0.004 h 0.0195 l 0.0195,-0.004 h 0.0391 l 0.082,-0.008 h 0.0391 l 0.043,-0.004 h 0.0391 l 0.0391,-0.004 h 0.082 l 0.0195,-0.004 h 0.10156 l 0.0195,-0.004 h 0.1836 l 0.0195,-0.004 h 0.24219 l 0.0195,0.004 h 0.20312 l 0.0195,0.004 h 0.0977 l 0.0391,0.004 0.0781,0.004 h 0.043 l 0.0391,0.004 0.0781,0.004 h 0.0391 l 0.0391,0.004 0.082,0.004 0.0195,0.004 h 0.0195 l 0.0391,0.004 0.0781,0.004 0.0195,0.004 h 0.0195 l 0.0391,0.004 0.082,0.008 h 0.0195 l 0.0195,0.004 0.11719,0.0117 0.16015,0.0156 0.0195,0.004 0.0234,0.004 0.043,0.004 0.25781,0.0352 0.0195,0.004 h 0.0234 l 0.043,0.008 0.0859,0.0117 0.17187,0.0312 h 0.0195 l 0.0234,0.004 0.30078,0.0547 0.34375,0.0742 0.0781,0.0156 0.082,0.0195 0.48047,0.11719 0.0195,0.008 0.0195,0.004 0.043,0.0117 0.0781,0.0234 0.16016,0.043 0.32031,0.0977 0.0234,0.008 0.0234,0.004 0.043,0.0156 0.0859,0.0273 0.17188,0.0586 0.34765,0.12109 0.69922,0.26563 0.0391,0.0156 0.043,0.0195 0.25782,0.10547 0.33984,0.15235 0.68359,0.32422 1.27344,0.68359 1.38281,0.85937 1.28907,0.90235 1.39843,1.08203 1.3711,1.16797 1.27734,1.17578 1.38672,1.35937 1.29688,1.35157 1.26953,1.39843 1.3789,1.58594 1.28516,1.54297 1.39453,1.74219 1.36719,1.76953 1.27344,1.70312 1.38671,1.89453 1.28907,1.81641 1.26562,1.81641 1.375,2.00781 1.28125,1.90625 1.39063,2.10156 1.29687,1.98438 1.27344,1.96875 1.37891,2.15625 1.28906,2.02734 1.39453,2.21484 1.37109,2.1836 1.27735,2.04687 1.38672,2.22266 1.29296,2.08203 1.26954,2.03906 1.375,2.21094 1.28515,2.05859 1.39063,2.22657 1.36718,2.17968 1.27735,2.02344 1.3789,2.1836 1.29297,2.02343 1.39844,2.17969 1.37109,2.12109 1.28125,1.96485 1.38672,2.10937 1.29688,1.95313 1.26953,1.89062 1.37891,2.03516 1.28906,1.87109 1.39062,2.00782 1.3711,1.94531 1.27734,1.78906 1.38281,1.91406 1.29297,1.76172 1.26563,1.69922 1.375,1.81641 1.28515,1.67187 1.39063,1.77735 1.36328,1.71484 1.27344,1.57422 1.38281,1.67578 1.28906,1.53125 1.39453,1.63281 1.3711,1.56641 1.28125,1.43359 1.38672,1.52344 1.29296,1.39062 1.26954,1.33204 1.3789,1.41796 1.28516,1.29297 1.39062,1.36719 1.36719,1.30859 1.27734,1.1875 1.38282,1.26172 1.28906,1.14453 1.26562,1.09375 1.375,1.15625 1.28125,1.04688 1.38672,1.10547 1.30078,1 1.26954,0.95312 1.3789,1.00391 1.28906,0.90625 1.39454,0.94922 1.37109,0.89844 1.27734,0.8125 1.38282,0.85156 1.29296,0.76172 1.26954,0.72265 1.375,0.75391 1.28515,0.67578 1.39063,0.69922 1.36718,0.66016 1.27344,0.58593 1.38281,0.60547 1.28907,0.54297 1.39453,0.55469 1.375,0.51562 1.27734,0.45313 1.39063,0.46484 1.29297,0.41016 1.27343,0.375 1.375,0.3789 1.28516,0.33204 1.39453,0.32812 1.37109,0.29688 1.27344,0.25 1.38672,0.24609 1.28906,0.20703 1.26953,0.17969 1.3711,0.16797 0.0195,0.004 h 0.0234 l 0.0391,0.004 0.0781,0.0117 0.16016,0.0156 0.32031,0.0352 0.64453,0.0625 0.0195,0.004 h 0.0234 l 0.043,0.008 0.0859,0.008 0.17578,0.0156 0.34766,0.0312 h 0.0195 l 0.0234,0.004 0.043,0.004 0.0859,0.004 0.17188,0.0156 0.34765,0.0273 0.0234,0.004 h 0.0195 l 0.0391,0.004 0.082,0.004 0.16406,0.0117 0.32422,0.0234 0.0195,0.004 h 0.0195 l 0.0391,0.004 0.082,0.004 0.16407,0.0117 0.32421,0.0195 h 0.0391 l 0.0391,0.004 0.0781,0.004 0.16016,0.008 0.32031,0.0195 h 0.0391 l 0.0391,0.004 0.0781,0.004 0.16016,0.008 0.32031,0.0117 0.0195,0.004 h 0.0664 l 0.25781,0.0117 h 0.043 l 0.043,0.004 h 0.0859 l 0.17187,0.008 h 0.043 l 0.043,0.004 h 0.0859 l 0.17578,0.008 h 0.0859 l 0.0859,0.004 0.17188,0.004 h 0.0781 l 0.082,0.004 0.16016,0.004 h 0.082 l 0.082,0.004 h 0.19922 l 0.0391,0.004 h 0.28516 l 0.0391,0.004 h 0.56641 l 0.0234,0.004 h 0.37109 l 0.0234,-0.004 h 0.5664 l 0.0859,-0.004 h 0.21485 l 0.043,-0.004 h 0.17188 l 0.0859,-0.004 h 0.16797 l 0.0234,-0.004 h 0.14844 l 0.17188,-0.004 0.0234,-0.004 h 0.14844 l 0.17188,-0.008 h 0.0781 l 0.082,-0.004 0.16016,-0.004 0.32031,-0.0117 h 0.0391 l 0.0391,-0.004 0.0781,-0.004 0.16016,-0.004 0.32031,-0.0156 h 0.043 l 0.043,-0.004 0.0898,-0.004 0.17188,-0.008 0.34765,-0.0195 h 0.043 l 0.043,-0.004 0.0859,-0.004 0.17187,-0.0117 0.34766,-0.0195 h 0.0195 l 0.0195,-0.004 h 0.043 l 0.082,-0.008 0.16016,-0.008 0.32422,-0.0234 0.64453,-0.0508 h 0.043 l 0.11718,-0.0117 0.16016,-0.0117 0.31641,-0.0273 0.63281,-0.0586 1.3789,-0.14062 1.28125,-0.15625 1.39454,-0.1875 1.36718,-0.21094 1.27344,-0.21484 1.38281,-0.25391 1.29297,-0.25781 1.26172,-0.27344 1.375,-0.3164 1.28125,-0.3125 1.38672,-0.36329 1.29687,-0.35546 1.27344,-0.3711 1.37891,-0.41797 1.28515,-0.41406 1.39454,-0.46484 1.36718,-0.47657 1.27735,-0.46484 1.38672,-0.51953 1.29296,-0.50781 1.26563,-0.51172 1.375,-0.57422 1.28516,-0.55469 1.39062,-0.62109 1.36719,-0.625 1.27344,-0.60156 1.3789,-0.67188 1.28906,-0.64453 1.39844,-0.71484 1.3711,-0.71875 1.27734,-0.6875 1.38672,-0.76563 1.29687,-0.72656 1.26953,-0.73047 1.37891,-0.8125 1.28516,-0.76953 1.39062,-0.85156 1.3711,-0.85547 1.27343,-0.8125 1.38282,-0.89453 1.29296,-0.85547 1.26563,-0.84766 1.375,-0.94141 1.28125,-0.89062 1.38672,-0.98047 1.30078,-0.92969 1.26953,-0.92578 1.37891,-1.01953 1.28906,-0.96875 1.39453,-1.0625 1.37109,-1.05859 1.27735,-1.00391 1.38672,-1.10156 1.29297,-1.04297 1.26953,-1.03516 1.375,-1.13672 1.28515,-1.07421 1.39063,-1.17969 1.36719,-1.17578 1.27343,-1.10547 1.38282,-1.21485 1.28906,-1.14843 1.39844,-1.25782 1.37109,-1.24609 1.28125,-1.17969 1.38672,-1.28906 1.29687,-1.21875 1.26953,-1.20703 1.37891,-1.32031 1.28906,-1.2461 1.39063,-1.36328 1.37109,-1.35547 1.27735,-1.27343 1.38281,-1.39454 1.29297,-1.3125 1.26562,-1.30078 1.375,-1.42187 1.28125,-1.33985 1.39063,-1.46484 1.36718,-1.44922 1.27344,-1.36328 1.37891,-1.49219 1.28906,-1.40625 1.39453,-1.53515 1.3711,-1.51953 1.28125,-1.42579 1.38671,-1.5625 1.29297,-1.46875 1.26953,-1.44921 1.37891,-1.58594 1.28125,-1.49219 1.39453,-1.62891 1.36719,-1.60937 1.27344,-1.51172 1.38281,-1.65234 1.29297,-1.55469 1.26562,-1.53125 1.3711,-1.67578 1.28125,-1.57031 1.39062,-1.71875 1.29688,-1.61329 1.26953,-1.59375 1.3789,-1.73828 1.28907,-1.63281 1.39453,-1.77734 1.37109,-1.76172 1.27735,-1.65235 1.38281,-1.80078 1.29297,-1.6914 1.26953,-1.67188 1.375,-1.82031 1.28515,-1.71094 1.39063,-1.86328 1.36328,-1.83984 1.27734,-1.72657 1.37891,-1.88281 1.28906,-1.76953 1.39844,-1.92578 1.37109,-1.90234 1.28125,-1.78516 1.38672,-1.94531 1.29688,-1.82422 1.26953,-1.80078 1.375,-1.96094 1.28906,-1.83984 1.39063,-2.00782 1.37109,-1.97656 1.27344,-1.85547 1.38281,-2.02343 1.29297,-1.89844 1.26562,-1.86719 1.375,-2.03906 1.28125,-1.91016 1.39063,-2.07812 1.29687,-1.95313 1.27344,-1.92578 1.37891,-2.09375 1.28906,-1.96484 1.39453,-2.14063 1.3711,-2.109374 1.27734,-1.980468 1.38672,-2.152344 1.29687,-2.019531 1.26563,-1.992188 1.3789,-2.167969 1.28125,-2.03125 1.39454,-2.210937 1.36718,-2.179688 1.27344,-2.046875 1.38281,-2.222656 1.28907,-2.085937 1.39843,-2.269532 1.375,-2.238281 1.27735,-2.097656 1.39062,-2.285156 1.29688,-2.136719 1.26953,-2.109375 1.3789,-2.292969 1.28516,-2.148437 1.39453,-2.339844 1.3711,-2.308594 1.27734,-2.15625 1.38281,-2.351562 0.47656,-0.8125"
                 transform="translate(-92,-14)"
                 id="path4048" />
            </g>
            <g
               transform="translate(12.857143,-118.92857)"
               style="clip-rule:nonzero"
               clip-path="url(#clip2)"
               id="g4054">
              <path
                 inkscape:connector-curvature="0"
                 style="fill:none;stroke:#9e9e9e;stroke-width:1.35001898;stroke-linecap:square;stroke-linejoin:miter;stroke-miterlimit:3.25;stroke-dasharray:11.2, 11.2;stroke-opacity:1"
                 d="M 387,273 95,272"
                 transform="translate(-92,-14)"
                 id="path4052" />
            </g>
            <g
               transform="translate(12.857143,-118.92857)"
               style="clip-rule:nonzero"
               clip-path="url(#clip3)"
               id="g4058">
              <path
                 inkscape:connector-curvature="0"
                 style="fill:none;stroke:#9e9e9e;stroke-width:1.35001898;stroke-linecap:square;stroke-linejoin:miter;stroke-miterlimit:3.25;stroke-dasharray:11.2, 11.2;stroke-opacity:1"
                 d="M 225.57031,123 101.42578,122"
                 transform="translate(-92,-14)"
                 id="path4056" />
            </g>
            <path
               inkscape:connector-curvature="0"
               style="fill:none;stroke:#9e9e9e;stroke-width:1.35001898;stroke-linecap:square;stroke-linejoin:miter;stroke-miterlimit:3.25;stroke-dasharray:5.6, 5.6;stroke-opacity:1"
               d="m 61.857143,65.731586 46.019527,0.6875"
               id="path4116" />
            <path
               inkscape:connector-curvature="0"
               style="fill:none;stroke:#9e9e9e;stroke-width:1.35001898;stroke-linecap:square;stroke-linejoin:miter;stroke-miterlimit:3.25;stroke-dasharray:5.6, 5.6;stroke-opacity:1"
               d="m 214.07198,66.731586 214.65235,0.6875"
               id="path4118" />
            <g
               transform="translate(14.071981,-118.26841)"
               style="clip-rule:nonzero"
               clip-path="url(#clip5)"
               id="g4122">
              <path
                 inkscape:connector-curvature="0"
                 style="fill:none;stroke:#9e9e9e;stroke-width:1.35001898;stroke-linecap:square;stroke-linejoin:miter;stroke-miterlimit:3.25;stroke-dasharray:11.2, 11.2;stroke-opacity:1"
                 d="M 291,200 V 377"
                 transform="translate(-92,-14)"
                 id="path4120" />
            </g>
            <g
               transform="translate(12.857143,-118.92857)"
               style="clip-rule:nonzero"
               clip-path="url(#clip6)"
               id="g4126">
              <path
                 inkscape:connector-curvature="0"
                 style="fill:none;stroke:#9e9e9e;stroke-width:1.35001898;stroke-linecap:square;stroke-linejoin:miter;stroke-miterlimit:3.25;stroke-dasharray:11.2, 11.2;stroke-opacity:1"
                 d="M 507,202 V 379"
                 transform="translate(-92,-14)"
                 id="path4124" />
            </g>
            <g
               transform="translate(12.857143,-118.92857)"
               style="clip-rule:nonzero"
               clip-path="url(#clip7)"
               id="g4130">
              <path
                 inkscape:connector-curvature="0"
                 style="fill:none;stroke:#9e9e9e;stroke-width:1.35001898;stroke-linecap:square;stroke-linejoin:miter;stroke-miterlimit:3.25;stroke-dasharray:11.2, 11.2;stroke-opacity:1"
                 d="M 189,202 V 379"
                 transform="translate(-92,-14)"
                 id="path4128" />
            </g>
            <g
               transform="translate(12.857143,-118.92857)"
               style="clip-rule:nonzero"
               clip-path="url(#clip8)"
               id="g4134">
              <path
                 inkscape:connector-curvature="0"
                 style="fill:none;stroke:#9e9e9e;stroke-width:1.35001898;stroke-linecap:square;stroke-linejoin:miter;stroke-miterlimit:3.25;stroke-dasharray:11.2, 11.2;stroke-opacity:1"
                 d="M 142,201 V 378"
                 transform="translate(-92,-14)"
                 id="path4132" />
            </g>
            <path
               inkscape:connector-curvature="0"
               style="fill:none;stroke:#636363;stroke-width:1.06260002;stroke-linecap:butt;stroke-linejoin:miter;stroke-miterlimit:3.25;stroke-opacity:1"
               d="m 19.357143,243.83315 v -4"
               id="path4136" />
            <g
               transform="translate(12.857143,-118.92857)"
               style="fill:#636363;fill-opacity:1"
               id="g4140">
              <use
                 height="100%"
                 width="100%"
                 xlink:href="#glyph8-1"
                 x="0.5"
                 y="386.96146"
                 id="use4138" />
            </g>
            <path
               inkscape:connector-curvature="0"
               style="fill:none;stroke:#636363;stroke-width:1.06260002;stroke-linecap:butt;stroke-linejoin:miter;stroke-miterlimit:3.25;stroke-opacity:1"
               d="m 152.18136,243.83315 v -4"
               id="path4142" />
            <g
               transform="translate(12.857143,-118.92857)"
               style="fill:#636363;fill-opacity:1"
               id="g4146">
              <use
                 height="100%"
                 width="100%"
                 xlink:href="#glyph8-2"
                 x="133.325"
                 y="386.96146"
                 id="use4144" />
            </g>
            <path
               inkscape:connector-curvature="0"
               style="fill:none;stroke:#000000;stroke-width:1.06260002;stroke-linecap:butt;stroke-linejoin:miter;stroke-miterlimit:3.25;stroke-opacity:1"
               d="M 19.357143,243.83315 H 550.65792"
               id="path4148" />
            <g
               transform="translate(12.857143,-118.92857)"
               style="fill:#636363;fill-opacity:1"
               id="g4152">
              <use
                 height="100%"
                 width="100%"
                 xlink:href="#glyph9-1"
                 x="549"
                 y="369.76144"
                 id="use4150" />
            </g>
            <path
               inkscape:connector-curvature="0"
               style="fill:none;stroke:#000000;stroke-width:1.06260002;stroke-linecap:butt;stroke-linejoin:miter;stroke-miterlimit:3.25;stroke-opacity:1"
               d="M 19.357143,243.83315 V -84.530137"
               id="path4154" />
            <g
               transform="translate(12.857143,-118.92857)"
               style="clip-rule:nonzero"
               clip-path="url(#clip9)"
               id="g4160">
              <g
                 style="fill:#636363;fill-opacity:1"
                 id="g4158">
                <use
                   height="100%"
                   width="100%"
                   xlink:href="#glyph9-2"
                   x="0.5"
                   y="20.000002"
                   id="use4156" />
              </g>
            </g>
            <g
               style="font-style:normal;font-variant:normal;font-weight:normal;font-stretch:normal;letter-spacing:normal;word-spacing:normal;text-anchor:start;fill:#000000;fill-opacity:1;fill-rule:evenodd;stroke:#000000;stroke-linecap:butt;stroke-linejoin:miter;stroke-miterlimit:10.43299961;stroke-dasharray:none;stroke-dashoffset:0;stroke-opacity:1"
               id="g5385"
               transform="matrix(2.6,0,0,-2.6,-303.15143,2241.4951)"
               xml:space="preserve"
               stroke-miterlimit="10.433"
               font-style="normal"
               font-variant="normal"
               font-weight="normal"
               font-stretch="normal"
               font-size-adjust="none"
               letter-spacing="normal"
               word-spacing="normal"
               ns0:text="$a \\qquad b \\qquad c \\qquad d$\n"
               ns0:preamble="default_packages.tex"><g
                 ns0:preamble="default_packages.tex"
                 ns0:text="$\\lambda \\qquad 1+\\frac{\\lambda^2}{4}$\n"
                 word-spacing="normal"
                 letter-spacing="normal"
                 font-size-adjust="none"
                 font-stretch="normal"
                 font-weight="normal"
                 font-variant="normal"
                 font-style="normal"
                 stroke-miterlimit="10.433"
                 xml:space="preserve"
                 transform="matrix(2.6,0,0,-2.6,-350.858,1995.696)"
                 id="content"
                 style="font-style:normal;font-variant:normal;font-weight:normal;font-stretch:normal;letter-spacing:normal;word-spacing:normal;text-anchor:start;fill:#000000;fill-opacity:1;fill-rule:evenodd;stroke:#000000;stroke-linecap:butt;stroke-linejoin:miter;stroke-miterlimit:10.43299961;stroke-dasharray:none;stroke-dashoffset:0;stroke-opacity:1"><path
                   id="path5370"
                   d="m 181.17051,456.77186 0.012,0.0304 0.0119,0.0304 0.0238,0.0639 0.0238,0.067 0.0238,0.0639 0.0208,0.067 0.0238,0.067 0.0238,0.0639 0.008,0.0335 0.0119,0.0304 0.008,0.0304 0.0119,0.0304 0.008,0.0274 0.0119,0.0274 0.008,0.0274 0.008,0.0244 0.008,0.0244 0.008,0.0244 0.006,0.0182 0.008,0.0213 0.006,0.0183 0.008,0.0152 0.006,0.0121 0.006,0.0122 0.003,0.0121 0.006,0.006 c 0.0477,0.067 0.0775,0.067 0.15797,0.067 h 0.0655 c 0.0298,-0.003 0.0328,-0.0213 0.0328,-0.0304 0,-0.01 -0.006,-0.0152 -0.0149,-0.0274 -0.0298,-0.0335 -0.0477,-0.0791 -0.0686,-0.14003 l -0.60805,-1.71991 c -0.0626,-0.17351 -0.22057,-0.21308 -0.36066,-0.21308 -0.0149,0 -0.0537,0 -0.0537,0.0335 0,0.0244 0.0239,0.0304 0.0269,0.0304 0.0984,0.0182 0.11923,0.0335 0.19375,0.24048 l 0.28614,0.8219 -0.81969,0.828 c -0.0357,0.0365 -0.0537,0.0548 -0.0537,0.0943 0,0.0517 0.0418,0.0883 0.0894,0.0883 0.0477,0 0.0745,-0.0335 0.0984,-0.0639 z"
                   inkscape:connector-curvature="0"
                   style="fill:#000000;stroke-width:0" /><path
                   id="path5372"
                   d="m 189.60735,430.82653 v -0.003 -0.003 -0.003 -0.003 -0.003 -0.003 -0.003 -0.003 -0.003 0 -0.003 -0.003 -0.003 0 -0.003 -0.003 0 -0.003 l -0.003,-0.003 v -0.003 -0.003 -0.003 l -0.003,-0.003 v -0.003 l -0.003,-0.003 v 0 l -0.003,-0.003 h -0.003 l -0.003,-0.003 v 0 h -0.003 v 0 h -0.003 v -0.003 h -0.003 -0.003 v 0 h -0.003 -0.003 v 0 h -0.003 -0.003 v 0 h -0.003 -0.003 -0.003 -0.003 -0.003 -0.003 -0.003 -0.003 -0.003 c -0.18587,0.19968 -0.44668,0.19968 -0.54262,0.19968 v 0.0983 c 0.06,0 0.23384,0 0.38972,-0.0824 v 1.63228 c 0,0.11093 -0.009,0.14896 -0.2788,0.14896 h -0.0929 v 0.0983 c 0.10193,-0.009 0.36275,-0.009 0.48266,-0.009 0.11991,0 0.38073,0 0.48565,0.009 v -0.0983 h -0.0959 c -0.26981,0 -0.2788,-0.0349 -0.2788,-0.14896 z"
                   inkscape:connector-curvature="0"
                   style="fill:#000000;stroke-width:0" /><path
                   id="path5374"
                   d="m 192.10757,432.11967 h 0.83341 c 0.042,0 0.0989,0 0.0989,-0.0634 0,-0.0634 -0.0569,-0.0634 -0.0989,-0.0634 h -0.83341 v -0.88111 c 0,-0.0444 0,-0.1046 -0.06,-0.1046 -0.06,0 -0.06,0.0602 -0.06,0.1046 v 0.88111 h -0.83641 c -0.042,0 -0.0989,0 -0.0989,0.0634 0,0.0634 0.0569,0.0634 0.0989,0.0634 h 0.83641 v 0.8811 c 0,0.0444 0,0.1046 0.06,0.1046 0.06,0 0.06,-0.0602 0.06,-0.1046 z"
                   inkscape:connector-curvature="0"
                   style="fill:#000000;stroke-width:0" /><path
                   id="path5376"
                   d="m 195.07846,430.96916 0.018,0.0475 0.021,0.0507 0.021,0.0475 0.018,0.0507 0.021,0.0475 0.018,0.0476 0.009,0.0254 0.009,0.0222 0.009,0.0222 0.009,0.0222 0.009,0.0222 0.009,0.019 0.006,0.019 0.009,0.019 0.006,0.019 0.009,0.0159 0.006,0.0159 0.006,0.0159 0.006,0.0127 0.006,0.0127 0.003,0.0127 0.006,0.009 0.003,0.006 0.003,0.006 0.003,0.006 0.003,0.003 c 0.042,0.0539 0.0779,0.0539 0.11092,0.0539 h 0.042 c 0.042,0 0.06,0 0.06,-0.0254 0,-0.0127 -0.006,-0.019 -0.009,-0.0222 -0.024,-0.0254 -0.045,-0.0761 -0.054,-0.0951 l -0.51263,-1.27096 c -0.015,-0.038 -0.057,-0.13945 -0.2788,-0.13945 -0.024,0 -0.054,0 -0.054,0.0317 0,0.0254 0.021,0.0286 0.033,0.0317 0.042,0.006 0.081,0.0127 0.13491,0.13945 l 0.24883,0.61488 -0.61757,0.58635 c -0.024,0.0222 -0.042,0.0412 -0.042,0.0792 0,0.0507 0.042,0.0729 0.0719,0.0729 0.039,0 0.063,-0.0286 0.069,-0.0349 z"
                   inkscape:connector-curvature="0"
                   style="fill:#000000;stroke-width:0" /><path
                   id="path5378"
                   d="m 196.52343,430.3416 h -0.063 c -0.003,0.0317 -0.018,0.12995 -0.042,0.14579 -0.012,0.006 -0.1379,0.006 -0.15889,0.006 h -0.29079 c 0.0959,-0.0761 0.20685,-0.16482 0.29679,-0.22503 0.1349,-0.0983 0.25781,-0.19017 0.25781,-0.35815 0,-0.19968 -0.17987,-0.31378 -0.39272,-0.31378 -0.20085,0 -0.34775,0.12361 -0.34775,0.27892 0,0.0824 0.066,0.0951 0.0869,0.0951 0.039,0 0.087,-0.0286 0.087,-0.0919 0,-0.057 -0.039,-0.0888 -0.0839,-0.0951 0.042,-0.0697 0.1289,-0.11727 0.22784,-0.11727 0.14389,0 0.26381,0.0919 0.26381,0.24722 0,0.12994 -0.0869,0.23137 -0.20086,0.33596 l -0.36274,0.32328 c -0.015,0.0159 -0.015,0.0159 -0.018,0.0254 v 0.0476 h 0.69251 z"
                   inkscape:connector-curvature="0"
                   style="fill:#000000;stroke-width:0" /><line
                   id="line5380"
                   y2="432.0531"
                   x2="196.81424"
                   y1="432.0531"
                   x1="194.23007"
                   style="fill:#000000;stroke-width:0.12268243" /><path
                   id="path5382"
                   d="m 196.03478,433.57128 v -0.0792 h -0.23083 v -0.98254 c 0,-0.0476 0,-0.0634 -0.048,-0.0634 -0.024,0 -0.033,0 -0.054,0.0317 l -0.69251,1.01423 v 0.0792 h 0.61456 l 0.015,-0.0792 h -0.5546 l 0.5546,-0.80821 v 0.80821 l -0.015,0.0792 v 0.18065 c 0,0.0729 0,0.10143 -0.16788,0.10143 h -0.0569 v 0.0792 c 0.10492,-0.006 0.23683,-0.009 0.31477,-0.009 0.078,0 0.20985,0.003 0.31478,0.009 v -0.0792 h -0.057 c -0.16787,0 -0.16787,-0.0286 -0.16787,-0.10143 v -0.18065 z"
                   inkscape:connector-curvature="0"
                   style="fill:#000000;stroke-width:0" /></g><g
                 style="font-style:normal;font-variant:normal;font-weight:normal;font-stretch:normal;letter-spacing:normal;word-spacing:normal;text-anchor:start;fill:#000000;fill-opacity:1;fill-rule:evenodd;stroke:#000000;stroke-linecap:butt;stroke-linejoin:miter;stroke-miterlimit:10.43299961;stroke-dasharray:none;stroke-dashoffset:0;stroke-opacity:1"
                 id="g4357"
                 transform="matrix(0.87787357,0,0,0.89979258,21.312079,96.646211)"
                 xml:space="preserve"
                 stroke-miterlimit="10.433"
                 font-style="normal"
                 font-variant="normal"
                 font-weight="normal"
                 font-stretch="normal"
                 font-size-adjust="none"
                 letter-spacing="normal"
                 word-spacing="normal"
                 ns0:text="$\\sqrt{a}$ \\quad $\\sqrt{b}$ \\quad $\\sqrt{c}$ \\quad $\\sqrt{d}$ \\quad\n"
                 ns0:preamble="default_packages.tex"><path
                   style="fill:#000000;stroke-width:0"
                   inkscape:connector-curvature="0"
                   d="m 152.13329,736.01226 -1.37361,3.4349 c -0.055,0.14239 -0.0943,0.14239 -0.11771,0.14239 -0.007,0 -0.0471,0 -0.13343,-0.0712 l -0.74568,-0.63181 c -0.10209,-0.089 -0.10209,-0.11563 -0.10209,-0.14237 0,-0.0446 0.0235,-0.0978 0.0784,-0.0978 0.0471,0 0.18053,0.12451 0.26688,0.19578 0.0471,0.0444 0.16483,0.14236 0.25117,0.21357 l 1.53844,-3.83536 c 0.055,-0.13354 0.0943,-0.13354 0.16483,-0.13354 0.11771,0 0.1413,0.0444 0.19624,0.16907 l 3.55569,8.31142 c 0.055,0.12452 0.055,0.16018 0.055,0.17798 0,0.089 -0.0628,0.17797 -0.15698,0.17797 -0.0628,0 -0.11771,-0.0444 -0.18053,-0.18687 z"
                   id="path4333" /><line
                   style="fill:#000000;stroke-width:0.38135695"
                   x1="155.60263"
                   y1="743.74518"
                   x2="161.03992"
                   y2="743.74518"
                   id="line4335" /><path
                   style="fill:#000000;stroke-width:0"
                   inkscape:connector-curvature="0"
                   d="m 298.22153,740.47575 -0.0198,0.0277 -0.0198,0.0369 -0.0198,0.0277 -0.0198,0.0277 -0.0198,0.0277 -0.0198,0.0277 -0.0198,0.0277 -0.0198,0.0277 -0.0198,0.0277 -0.0298,0.0277 -0.0199,0.0277 -0.0296,0.0185 -0.0199,0.0277 -0.0296,0.0185 -0.0296,0.0185 -0.0198,0.0277 -0.0297,0.0185 -0.0296,0.0185 -0.0296,0.009 -0.0296,0.0185 -0.0297,0.0185 -0.0395,0.009 -0.0296,0.0185 -0.0395,0.009 -0.0296,0.009 -0.0395,0.009 -0.0297,0.009 h -0.0395 l -0.0395,0.009 h -0.0395 l -0.0395,0.009 h -0.0395 c -1.15735,0 -2.38392,-1.36064 -2.38392,-2.69348 0,-0.87006 0.54405,-1.47171 1.31561,-1.47171 l 0.0198,0.19437 c -0.49458,0 -0.63307,0.50908 -0.63307,0.87006 0,0.4628 0.31655,1.59204 0.54406,2.00854 0.30663,0.54611 0.75176,0.88858 1.14744,0.88858 0.64296,0 0.78142,-0.75898 0.78142,-0.81451 0,-0.0556 -0.0198,-0.1111 -0.0296,-0.15737 l -0.49459,-1.79564 c -0.0495,-0.16662 -0.0495,-0.18513 -0.19783,-0.34249 -0.43524,-0.50907 -0.84079,-0.65717 -1.11776,-0.65717 l -0.0198,-0.19437 c 0.19781,0 0.6924,0.0277 1.28588,0.68495 0.0792,-0.38876 0.41546,-0.68495 0.89027,-0.68495 0.3462,0 0.57371,0.20363 0.73198,0.49982 0.16817,0.33321 0.29675,0.89783 0.29675,0.91634 0,0.0926 -0.0889,0.0926 -0.11871,0.0926 -0.0988,0 -0.1088,-0.0369 -0.13834,-0.16662 -0.16815,-0.60164 -0.34624,-1.14774 -0.75178,-1.14774 -0.25719,0 -0.29675,0.24066 -0.29675,0.42578 0,0.20362 0.0198,0.27768 0.12846,0.68494 0.10881,0.3795 0.12874,0.47206 0.21762,0.82378 l 0.35608,1.28658 c 0.0693,0.25916 0.0693,0.27768 0.0693,0.31471 0,0.15734 -0.11871,0.2499 -0.28685,0.2499 -0.23741,0 -0.38579,-0.20362 -0.40557,-0.40726 z"
                   id="path4337" /><path
                   style="fill:#000000;stroke-width:0"
                   inkscape:connector-curvature="0"
                   d="m 291.68665,735.80675 -1.40825,3.62383 c -0.0563,0.14992 -0.0965,0.14992 -0.12064,0.14992 -0.008,0 -0.0483,0 -0.13677,-0.0745 l -0.76448,-0.6745 c -0.10458,-0.093 -0.10458,-0.12207 -0.10458,-0.14992 0,-0.0467 0.024,-0.10353 0.0805,-0.10353 0.0483,0 0.18509,0.13135 0.27361,0.20587 0.0483,0.0467 0.16899,0.14992 0.2575,0.22453 l 1.57724,-4.0265 c 0.0563,-0.14992 0.0965,-0.14992 0.169,-0.14992 0.12064,0 0.14486,0.0559 0.20117,0.18729 l 3.64539,8.74605 c 0.0563,0.12205 0.0563,0.16871 0.0563,0.17799 0,0.0931 -0.0644,0.18729 -0.16095,0.18729 -0.0644,0 -0.12063,-0.0467 -0.18508,-0.19657 z"
                   id="path4339" /><line
                   style="fill:#000000;stroke-width:0.47247946"
                   x1="295.25156"
                   y1="743.94385"
                   x2="301.6778"
                   y2="743.94385"
                   id="line4341" /><path
                   style="fill:#000000;stroke-width:0"
                   inkscape:connector-curvature="0"
                   d="m 204.24007,742.58503 v 0 0 0 0.009 0 0 0 0.009 0 0.009 0 h -0.01 v 0.009 0 0.009 0 l -0.01,0.009 v 0 0.009 h -0.01 v 0.009 0 h -0.01 v 0 0.009 h -0.01 v 0 0 h -0.01 v 0.009 0 h -0.01 v 0 0 h -0.01 v 0 h -0.01 v 0.009 h -0.01 v 0 h -0.01 v 0 h -0.01 v 0 h -0.01 c -0.22136,0 -0.92394,-0.0703 -1.17414,-0.0878 -0.077,-0.009 -0.18285,-0.0167 -0.18285,-0.17671 0,-0.10636 0.0865,-0.10636 0.23096,-0.10636 0.46195,0 0.48122,-0.0615 0.48122,-0.15022 0,-0.0615 -0.0865,-0.35339 -0.13476,-0.53886 l -0.78914,-2.86268 c -0.10583,-0.44216 -0.14428,-0.5828 -0.14428,-0.89231 0,-0.83069 0.50046,-1.36954 1.21266,-1.36954 v 0.18549 c -0.32725,0 -0.64486,0.23821 -0.64486,0.89239 0,0.16794 0,0.32701 0.15405,0.88351 l 0.21173,0.81311 c 0.0577,0.18548 0.0577,0.203 0.14427,0.30065 0.47156,0.574 0.90465,0.70674 1.15485,0.70674 0.34649,0 0.60634,-0.26547 0.60634,-0.83069 0,-0.51248 -0.31758,-1.52848 -0.49083,-1.85538 -0.31759,-0.59161 -0.76031,-0.91008 -1.13562,-0.91008 v -0.18548 c 1.13562,0 2.30975,1.30767 2.30975,2.5711 0,0.79553 -0.50044,1.40478 -1.27036,1.40478 -0.44271,0 -0.83729,-0.25578 -1.12602,-0.53005 z"
                   id="path4343" /><path
                   style="fill:#000000;stroke-width:0"
                   inkscape:connector-curvature="0"
                   d="m 132.00325,736.20032 -1.41935,3.38271 c -0.0568,0.14021 -0.0973,0.14021 -0.12158,0.14021 -0.008,0 -0.0487,0 -0.13789,-0.0701 l -0.7705,-0.62221 c -0.10538,-0.0876 -0.10538,-0.11387 -0.10538,-0.14022 0,-0.0439 0.0243,-0.0964 0.0811,-0.0964 0.0487,0 0.18655,0.12269 0.27575,0.1928 0.0488,0.0439 0.17034,0.14022 0.25954,0.21032 l 1.59776,-3.77707 c 0.0568,-0.13145 0.0973,-0.13145 0.17032,-0.13145 0.12172,0 0.13788,0.0439 0.20277,0.16651 l 3.66591,8.1851 c 0.0568,0.12269 0.0568,0.15775 0.0568,0.17527 0,0.0877 -0.0649,0.17527 -0.1622,0.17527 -0.0649,0 -0.1216,-0.0439 -0.18655,-0.18403 z"
                   id="path4345" /><path
                   style="fill:#000000;stroke-width:0"
                   inkscape:connector-curvature="0"
                   d="m 158.61525,739.92345 h -0.0261 -0.026 -0.0261 -0.0263 -0.026 l -0.0261,-0.009 h -0.008 -0.008 -0.0175 l -0.008,-0.009 h -0.008 -0.0175 l -0.008,-0.009 h -0.008 l -0.0175,-0.009 -0.008,-0.009 h -0.008 l -0.0175,-0.009 -0.008,-0.009 h -0.008 l -0.0175,-0.009 -0.008,-0.009 -0.008,-0.009 -0.0174,-0.009 -0.008,-0.0172 -0.008,-0.009 c -0.13942,-0.1286 -0.15684,-0.27434 -0.15684,-0.33435 0,-0.20576 0.15684,-0.29148 0.32238,-0.29148 0.2527,0 0.48793,0.19718 0.48793,0.54011 0,0.42006 -0.4095,0.73727 -1.02814,0.73727 -1.17626,0 -2.32641,-1.21738 -2.32641,-2.42617 0,-0.76301 0.49665,-1.4317 1.40282,-1.4317 1.24597,0 1.97787,0.90017 1.97787,1.00304 0,0.0515 -0.0523,0.11151 -0.10458,0.11151 -0.0435,0 -0.061,-0.0172 -0.11321,-0.0858 -0.68833,-0.84874 -1.63807,-0.84874 -1.74263,-0.84874 -0.54894,0 -0.77546,0.42009 -0.77546,0.93446 0,0.34292 0.16554,1.17452 0.46179,1.69747 0.2701,0.48867 0.74933,0.85731 1.22855,0.85731 0.29625,0 0.62735,-0.11151 0.74932,-0.34293 z"
                   id="path4349" /><path
                   style="fill:#000000;stroke-width:0"
                   inkscape:connector-curvature="0"
                   d="m 198.90313,736.83378 -1.42061,3.24711 c -0.0568,0.13425 -0.0974,0.13425 -0.12176,0.13425 -0.008,0 -0.0487,0 -0.138,-0.0671 l -0.7712,-0.60411 c -0.1055,-0.0839 -0.1055,-0.10911 -0.1055,-0.13426 0,-0.042 0.0243,-0.0923 0.0812,-0.0923 0.0487,0 0.1867,0.11746 0.276,0.18458 0.0487,0.042 0.17047,0.13426 0.25977,0.20138 l 1.59108,-3.6079 c 0.0569,-0.13425 0.0974,-0.13425 0.17047,-0.13425 0.12176,0 0.14612,0.0503 0.20294,0.16781 l 3.67733,7.8367 c 0.0569,0.10911 0.0569,0.15102 0.0569,0.15942 0,0.0839 -0.0649,0.1678 -0.16236,0.1678 -0.0649,0 -0.12176,-0.042 -0.1867,-0.1762 z"
                   id="path4351" /><line
                   style="fill:#000000;stroke-width:0.38443211"
                   x1="202.3974"
                   y1="744.0675"
                   x2="208.15733"
                   y2="744.0675"
                   id="line4353" /><path
                   style="fill:#000000;stroke-width:0"
                   inkscape:connector-curvature="0"
                   d="m 139.47989,742.22698 v 0 0 0 0.009 0 0 0 0.009 0 0.009 0 0 l -0.009,0.009 v 0 0.009 0 l -0.009,0.009 v 0 0.009 h -0.009 v 0.009 0 h -0.009 v 0 0.009 0 h -0.009 v 0 0 l -0.009,0.009 v 0 0 h -0.009 v 0 h -0.009 v 0 h -0.009 v 0.009 h -0.009 v 0 h -0.009 v 0 h -0.009 v 0 h -0.009 c -0.14526,0 -1.0652,-0.0786 -1.22014,-0.0961 -0.0872,-0.009 -0.13557,-0.0524 -0.13557,-0.16605 0,-0.10483 0.0774,-0.10483 0.22273,-0.10483 0.46481,0 0.48417,-0.0611 0.48417,-0.14856 l -0.029,-0.17479 -0.57133,-2.05375 c -0.18399,0.32336 -0.45514,0.55932 -0.8909,0.55932 -1.13298,0 -2.33375,-1.28468 -2.33375,-2.54314 0,-0.8215 0.5326,-1.38955 1.28793,-1.38955 l 0.0193,0.18352 c -0.48418,0 -0.61974,0.48067 -0.61974,0.82149 0,0.43698 0.30987,1.50317 0.53258,1.89645 0.3002,0.51561 0.73596,0.83896 1.1233,0.83896 0.62945,0 0.76502,-0.71661 0.76502,-0.76905 0,-0.0524 -0.0194,-0.10483 -0.0291,-0.14858 l -0.48417,-1.69542 c -0.0484,-0.15731 -0.0484,-0.17479 -0.19368,-0.32335 -0.42608,-0.48067 -0.8231,-0.6205 -1.09425,-0.6205 l -0.0193,-0.18352 c 0.19367,0 0.67785,0.0262 1.25888,0.6467 0.0774,-0.36705 0.40671,-0.6467 0.87151,-0.6467 0.33893,0 0.56166,0.19226 0.7166,0.47192 0.16461,0.3146 0.29049,0.84771 0.29049,0.86519 0,0.0875 -0.0872,0.0875 -0.11612,0.0875 -0.0969,0 -0.10655,-0.0349 -0.13558,-0.1573 -0.16463,-0.56806 -0.33893,-1.08367 -0.73596,-1.08367 -0.26145,0 -0.29051,0.22721 -0.29051,0.402 0,0.20974 0.0194,0.27092 0.0678,0.41949 z"
                   id="path4355" /><line
                   style="font-style:normal;font-variant:normal;font-weight:normal;font-stretch:normal;letter-spacing:normal;word-spacing:normal;text-anchor:start;fill:#000000;fill-opacity:1;fill-rule:evenodd;stroke:#000000;stroke-width:0.42537731;stroke-linecap:butt;stroke-linejoin:miter;stroke-miterlimit:10.43299961;stroke-dasharray:none;stroke-dashoffset:0;stroke-opacity:1"
                   x1="135.62236"
                   y1="743.80701"
                   x2="142.38736"
                   y2="743.80701"
                   id="line4335-3" /></g></g>          </g>
        </g>
      </g>
    </g>
  </g>
</svg>
