<?xml version="1.0" encoding="UTF-8" standalone="no"?>
<svg
   xmlns:ns0="http://www.iki.fi/pav/software/textext/"
   xmlns:dc="http://purl.org/dc/elements/1.1/"
   xmlns:cc="http://creativecommons.org/ns#"
   xmlns:rdf="http://www.w3.org/1999/02/22-rdf-syntax-ns#"
   xmlns:svg="http://www.w3.org/2000/svg"
   xmlns="http://www.w3.org/2000/svg"
   xmlns:xlink="http://www.w3.org/1999/xlink"
   xmlns:sodipodi="http://sodipodi.sourceforge.net/DTD/sodipodi-0.dtd"
   xmlns:inkscape="http://www.inkscape.org/namespaces/inkscape"
   width="560pt"
   height="391pt"
   viewBox="0 0 560 391"
   version="1.1"
   id="svg159"
   sodipodi:docname="potential_1.svg"
   inkscape:version="0.92.2 (5c3e80d, 2017-08-06)">
  <sodipodi:namedview
     pagecolor="#ffffff"
     bordercolor="#666666"
     borderopacity="1"
     objecttolerance="10"
     gridtolerance="10"
     guidetolerance="10"
     inkscape:pageopacity="0"
     inkscape:pageshadow="2"
     inkscape:window-width="1920"
     inkscape:window-height="1017"
     id="namedview161"
     showgrid="false"
     inkscape:zoom="1.0871767"
     inkscape:cx="396.22641"
     inkscape:cy="290.58867"
     inkscape:window-x="1912"
     inkscape:window-y="-8"
     inkscape:window-maximized="1"
     inkscape:current-layer="surface29" />
  <metadata
     id="metadata163">
    <rdf:RDF>
      <cc:Work
         rdf:about="">
        <dc:format>image/svg+xml</dc:format>
        <dc:type
           rdf:resource="http://purl.org/dc/dcmitype/StillImage" />
        <dc:title></dc:title>
      </cc:Work>
    </rdf:RDF>
  </metadata>
  <defs
     id="defs58">
    <g
       id="g29">
      <symbol
         id="glyph0-0"
         overflow="visible">
        <path
           id="path2"
           d="M 1.398438 0 L 1.398438 -17.914063 L 9.800781 -17.914063 L 9.800781 0 Z M 2.800781 -1.398438 L 8.398438 -1.398438 L 8.398438 -16.515625 L 2.800781 -16.515625 Z M 2.800781 -1.398438 "
           style="stroke:none;" />
      </symbol>
      <symbol
         id="glyph0-1"
         overflow="visible">
        <path
           id="path5"
           d="M 11.84375 -4.910156 L 1.234375 -4.910156 L 1.234375 -6.75 L 11.84375 -6.75 Z M 11.84375 -4.910156 "
           style="stroke:none;" />
      </symbol>
      <symbol
         id="glyph1-0"
         overflow="visible">
        <path
           id="path8"
           d="M 2.800781 0 L 2.800781 -14 L 14 -14 L 14 0 Z M 3.148438 -0.351563 L 13.648438 -0.351563 L 13.648438 -13.648438 L 3.148438 -13.648438 Z M 3.148438 -0.351563 "
           style="stroke:none;" />
      </symbol>
      <symbol
         id="glyph1-1"
         overflow="visible">
        <path
           id="path11"
           d="M 11.277344 -1.890625 L 11.277344 0 L 0.679688 0 C 0.664063 -0.472656 0.738281 -0.925781 0.90625 -1.367188 C 1.175781 -2.085938 1.609375 -2.796875 2.203125 -3.5 C 2.796875 -4.195313 3.65625 -5.007813 4.78125 -5.929688 C 6.523438 -7.355469 7.699219 -8.484375 8.3125 -9.324219 C 8.921875 -10.15625 9.226563 -10.945313 9.230469 -11.691406 C 9.226563 -12.46875 8.949219 -13.128906 8.394531 -13.664063 C 7.835938 -14.199219 7.109375 -14.464844 6.210938 -14.46875 C 5.261719 -14.464844 4.503906 -14.183594 3.9375 -13.617188 C 3.367188 -13.046875 3.078125 -12.257813 3.074219 -11.253906 L 1.050781 -11.460938 C 1.183594 -12.96875 1.707031 -14.117188 2.613281 -14.910156 C 3.515625 -15.699219 4.730469 -16.09375 6.257813 -16.097656 C 7.792969 -16.09375 9.007813 -15.667969 9.90625 -14.816406 C 10.800781 -13.960938 11.25 -12.90625 11.253906 -11.648438 C 11.25 -11.007813 11.117188 -10.375 10.859375 -9.757813 C 10.59375 -9.132813 10.160156 -8.480469 9.554688 -7.796875 C 8.941406 -7.109375 7.929688 -6.167969 6.519531 -4.976563 C 5.335938 -3.980469 4.578125 -3.308594 4.242188 -2.957031 C 3.90625 -2.601563 3.628906 -2.246094 3.414063 -1.890625 Z M 11.277344 -1.890625 "
           style="stroke:none;" />
      </symbol>
      <symbol
         id="glyph1-2"
         overflow="visible">
        <path
           id="path14"
           d="M 8.34375 0 L 6.375 0 L 6.375 -12.546875 C 5.898438 -12.089844 5.277344 -11.636719 4.511719 -11.1875 C 3.742188 -10.734375 3.050781 -10.398438 2.4375 -10.171875 L 2.4375 -12.074219 C 3.539063 -12.589844 4.5 -13.214844 5.324219 -13.953125 C 6.148438 -14.6875 6.734375 -15.402344 7.078125 -16.097656 L 8.34375 -16.097656 Z M 8.34375 0 "
           style="stroke:none;" />
      </symbol>
      <symbol
         id="glyph1-3"
         overflow="visible">
        <path
           id="path17"
           d="M 0.929688 -7.90625 C 0.925781 -9.796875 1.121094 -11.324219 1.515625 -12.484375 C 1.902344 -13.636719 2.480469 -14.527344 3.253906 -15.15625 C 4.019531 -15.78125 4.988281 -16.09375 6.15625 -16.097656 C 7.015625 -16.09375 7.769531 -15.921875 8.421875 -15.578125 C 9.066406 -15.230469 9.601563 -14.730469 10.027344 -14.078125 C 10.449219 -13.425781 10.78125 -12.632813 11.023438 -11.695313 C 11.261719 -10.757813 11.382813 -9.492188 11.386719 -7.90625 C 11.382813 -6.023438 11.191406 -4.507813 10.804688 -3.351563 C 10.417969 -2.195313 9.839844 -1.300781 9.070313 -0.671875 C 8.300781 -0.0429688 7.328125 0.269531 6.15625 0.273438 C 4.609375 0.269531 3.394531 -0.28125 2.515625 -1.390625 C 1.453125 -2.71875 0.925781 -4.890625 0.929688 -7.90625 Z M 2.953125 -7.90625 C 2.953125 -5.273438 3.257813 -3.523438 3.875 -2.652344 C 4.488281 -1.777344 5.25 -1.339844 6.15625 -1.34375 C 7.058594 -1.339844 7.820313 -1.777344 8.4375 -2.65625 C 9.054688 -3.527344 9.363281 -5.277344 9.363281 -7.90625 C 9.363281 -10.542969 9.054688 -12.296875 8.4375 -13.167969 C 7.820313 -14.03125 7.050781 -14.464844 6.136719 -14.46875 C 5.230469 -14.464844 4.507813 -14.082031 3.96875 -13.320313 C 3.289063 -12.339844 2.953125 -10.535156 2.953125 -7.90625 Z M 2.953125 -7.90625 "
           style="stroke:none;" />
      </symbol>
      <symbol
         id="glyph2-0"
         overflow="visible">
        <path
           id="path20"
           d="M 2.800781 0 L 2.800781 -14 L 14 -14 L 14 0 Z M 3.148438 -0.351563 L 13.648438 -0.351563 L 13.648438 -13.648438 L 3.148438 -13.648438 Z M 3.148438 -0.351563 "
           style="stroke:none;" />
      </symbol>
      <symbol
         id="glyph2-1"
         overflow="visible">
        <path
           id="path23"
           d="M -0.03125 0 L 5.019531 -5.894531 L 2.121094 -11.617188 L 4.308594 -11.617188 L 5.292969 -9.546875 C 5.652344 -8.773438 5.980469 -8.035156 6.277344 -7.328125 L 9.625 -11.617188 L 12.042969 -11.617188 L 7.164063 -5.742188 L 10.09375 0 L 7.90625 0 L 6.75 -2.363281 C 6.5 -2.863281 6.21875 -3.488281 5.90625 -4.234375 L 2.449219 0 Z M -0.03125 0 "
           style="stroke:none;" />
      </symbol>
      <symbol
         id="glyph2-2"
         overflow="visible">
        <path
           id="path26"
           d="M 8.671875 -2.101563 C 7.28125 -0.527344 5.855469 0.257813 4.398438 0.261719 C 3.496094 0.257813 2.769531 0.00390625 2.222656 -0.507813 C 1.667969 -1.019531 1.394531 -1.648438 1.398438 -2.394531 C 1.394531 -2.882813 1.519531 -3.722656 1.773438 -4.910156 L 3.171875 -11.617188 L 5.152344 -11.617188 L 3.597656 -4.1875 C 3.464844 -3.566406 3.398438 -3.085938 3.402344 -2.746094 C 3.398438 -2.304688 3.53125 -1.964844 3.800781 -1.722656 C 4.0625 -1.476563 4.453125 -1.351563 4.976563 -1.355469 C 5.527344 -1.351563 6.070313 -1.488281 6.601563 -1.757813 C 7.128906 -2.027344 7.585938 -2.390625 7.96875 -2.851563 C 8.351563 -3.308594 8.660156 -3.851563 8.902344 -4.484375 C 9.058594 -4.882813 9.246094 -5.585938 9.460938 -6.59375 L 10.511719 -11.617188 L 12.492188 -11.617188 L 10.0625 0 L 8.234375 0 Z M 8.671875 -2.101563 "
           style="stroke:none;" />
      </symbol>
    </g>
    <clipPath
       id="clip1">
      <path
         id="path31"
         d="M 0 147 L 536 147 L 536 367 L 0 367 Z M 0 147 " />
    </clipPath>
    <clipPath
       id="clip2">
      <path
         id="path34"
         d="M 12 70 L 536 70 L 536 84 L 12 84 Z M 12 70 " />
    </clipPath>
    <clipPath
       id="clip3">
      <path
         id="path37"
         d="M 426 245 L 536 245 L 536 259 L 426 259 Z M 426 245 " />
    </clipPath>
    <clipPath
       id="clip4">
      <path
         id="path40"
         d="M 355 153 L 536 153 L 536 167 L 355 167 Z M 355 153 " />
    </clipPath>
    <clipPath
       id="clip5">
      <path
         id="path43"
         d="M 309 259 L 323 259 L 323 367 L 309 367 Z M 309 259 " />
    </clipPath>
    <clipPath
       id="clip6">
      <path
         id="path46"
         d="M 422 247 L 436 247 L 436 367 L 422 367 Z M 422 247 " />
    </clipPath>
    <clipPath
       id="clip7">
      <path
         id="path49"
         d="M 212 252 L 226 252 L 226 367 L 212 367 Z M 212 252 " />
    </clipPath>
    <clipPath
       id="clip8">
      <path
         id="path52"
         d="M 99 249 L 113 249 L 113 367 L 99 367 Z M 99 249 " />
    </clipPath>
    <clipPath
       id="clip9">
      <path
         id="path55"
         d="M 262 9 L 276 9 L 276 22 L 262 22 Z M 262 9 " />
    </clipPath>
  </defs>
  <g
     id="surface29">
    <g
       id="g62"
       clip-path="url(#clip1)"
       clip-rule="nonzero">
      <path
         id="path60"
         transform="matrix(1,0,0,1,-92,-14)"
         d="M 92.722656 334.808594 L 92.742188 334.800781 L 92.761719 334.796875 L 92.800781 334.78125 L 92.882813 334.753906 L 93.042969 334.703125 L 93.367188 334.59375 L 94.011719 334.378906 L 95.410156 333.90625 L 96.714844 333.460938 L 97.996094 333.015625 L 99.382813 332.523438 L 100.675781 332.058594 L 102.082031 331.550781 L 103.460938 331.042969 L 104.746094 330.5625 L 106.140625 330.03125 L 107.441406 329.527344 L 108.71875 329.03125 L 110.101563 328.480469 L 111.394531 327.960938 L 112.792969 327.386719 L 114.167969 326.816406 L 115.449219 326.273438 L 116.839844 325.675781 L 118.136719 325.113281 L 119.542969 324.492188 L 120.925781 323.871094 L 122.210938 323.285156 L 123.609375 322.636719 L 124.914063 322.023438 L 126.191406 321.414063 L 127.578125 320.738281 L 128.871094 320.101563 L 130.273438 319.398438 L 131.652344 318.695313 L 132.933594 318.03125 L 134.328125 317.300781 L 135.628906 316.605469 L 136.902344 315.914063 L 138.285156 315.148438 L 139.574219 314.425781 L 140.972656 313.628906 L 142.28125 312.875 L 143.5625 312.121094 L 144.949219 311.289063 L 146.246094 310.5 L 147.652344 309.632813 L 149.03125 308.761719 L 150.316406 307.941406 L 151.710938 307.03125 L 153.015625 306.171875 L 154.292969 305.3125 L 155.675781 304.367188 L 156.96875 303.464844 L 158.371094 302.476563 L 159.746094 301.484375 L 161.027344 300.546875 L 162.417969 299.511719 L 163.71875 298.527344 L 165.125 297.445313 L 166.507813 296.359375 L 167.796875 295.332031 L 169.191406 294.199219 L 170.496094 293.121094 L 171.777344 292.050781 L 173.164063 290.863281 L 174.457031 289.738281 L 175.863281 288.5 L 177.238281 287.261719 L 178.523438 286.085938 L 179.917969 284.789063 L 181.21875 283.558594 L 182.496094 282.332031 L 183.878906 280.976563 L 185.171875 279.691406 L 186.570313 278.273438 L 187.875 276.929688 L 189.15625 275.589844 L 190.546875 274.109375 L 191.84375 272.707031 L 193.25 271.160156 L 194.628906 269.617188 L 195.917969 268.152344 L 197.3125 266.539063 L 198.617188 265.007813 L 199.894531 263.484375 L 201.28125 261.804688 L 202.574219 260.214844 L 203.976563 258.460938 L 205.351563 256.714844 L 206.636719 255.0625 L 208.027344 253.242188 L 209.328125 251.519531 L 210.601563 249.808594 L 211.984375 247.925781 L 213.273438 246.144531 L 214.671875 244.191406 L 215.976563 242.34375 L 217.257813 240.511719 L 218.644531 238.5 L 219.941406 236.601563 L 221.347656 234.519531 L 222.726563 232.460938 L 224.011719 230.519531 L 225.40625 228.394531 L 226.707031 226.398438 L 227.984375 224.429688 L 229.367188 222.277344 L 230.660156 220.261719 L 232.0625 218.066406 L 233.4375 215.90625 L 234.71875 213.890625 L 236.109375 211.703125 L 237.40625 209.664063 L 238.8125 207.460938 L 240.195313 205.308594 L 241.484375 203.316406 L 242.878906 201.175781 L 244.183594 199.199219 L 245.460938 197.289063 L 246.847656 195.246094 L 248.144531 193.382813 L 249.546875 191.410156 L 250.921875 189.527344 L 252.207031 187.824219 L 253.601563 186.046875 L 254.902344 184.460938 L 256.175781 182.976563 L 257.558594 181.460938 L 258.851563 180.136719 L 260.25 178.8125 L 261.554688 177.6875 L 262.835938 176.695313 L 264.226563 175.757813 L 264.265625 175.734375 L 264.304688 175.707031 L 264.386719 175.65625 L 264.550781 175.558594 L 264.875 175.371094 L 265.523438 175.019531 L 265.542969 175.007813 L 265.566406 174.996094 L 265.609375 174.972656 L 265.699219 174.929688 L 265.875 174.84375 L 266.226563 174.675781 L 266.246094 174.667969 L 266.269531 174.65625 L 266.398438 174.597656 L 266.574219 174.523438 L 266.925781 174.378906 L 266.949219 174.367188 L 266.96875 174.359375 L 267.011719 174.34375 L 267.101563 174.3125 L 267.273438 174.246094 L 267.617188 174.125 L 267.636719 174.117188 L 267.660156 174.113281 L 267.703125 174.097656 L 267.960938 174.015625 L 268.308594 173.917969 L 268.328125 173.914063 L 268.347656 173.90625 L 268.386719 173.898438 L 268.46875 173.875 L 268.628906 173.835938 L 268.667969 173.828125 L 268.707031 173.816406 L 268.789063 173.800781 L 268.949219 173.765625 L 268.96875 173.761719 L 268.992188 173.757813 L 269.109375 173.734375 L 269.273438 173.703125 L 269.351563 173.6875 L 269.433594 173.675781 L 269.59375 173.652344 L 269.617188 173.648438 L 269.636719 173.644531 L 269.679688 173.640625 L 269.769531 173.628906 L 269.789063 173.625 L 269.8125 173.621094 L 269.855469 173.617188 L 269.941406 173.605469 L 269.964844 173.605469 L 269.984375 173.601563 L 270.03125 173.597656 L 270.117188 173.589844 L 270.140625 173.585938 L 270.160156 173.585938 L 270.203125 173.582031 L 270.292969 173.574219 L 270.3125 173.574219 L 270.335938 173.570313 L 270.378906 173.566406 L 270.421875 173.566406 L 270.464844 173.5625 L 270.488281 173.5625 L 270.507813 173.558594 L 270.574219 173.558594 L 270.597656 173.554688 L 270.660156 173.554688 L 270.683594 173.550781 L 270.816406 173.550781 L 270.835938 173.546875 L 271.214844 173.546875 L 271.234375 173.550781 L 271.355469 173.550781 L 271.394531 173.554688 L 271.4375 173.554688 L 271.476563 173.558594 L 271.519531 173.558594 L 271.558594 173.5625 L 271.640625 173.566406 L 271.660156 173.566406 L 271.679688 173.570313 L 271.722656 173.574219 L 271.804688 173.578125 L 271.824219 173.582031 L 271.84375 173.582031 L 271.882813 173.585938 L 271.964844 173.59375 L 271.988281 173.59375 L 272.007813 173.597656 L 272.046875 173.601563 L 272.128906 173.609375 L 272.292969 173.632813 L 272.3125 173.632813 L 272.371094 173.644531 L 272.453125 173.65625 L 272.609375 173.679688 L 272.632813 173.683594 L 272.691406 173.695313 L 272.769531 173.707031 L 272.929688 173.738281 L 272.949219 173.742188 L 272.96875 173.75 L 273.011719 173.757813 L 273.089844 173.773438 L 273.25 173.8125 L 273.570313 173.894531 L 273.589844 173.898438 L 273.613281 173.90625 L 273.742188 173.941406 L 273.914063 173.996094 L 274.261719 174.113281 L 274.285156 174.117188 L 274.304688 174.125 L 274.347656 174.140625 L 274.433594 174.175781 L 274.609375 174.242188 L 274.953125 174.382813 L 274.972656 174.394531 L 274.996094 174.402344 L 275.035156 174.421875 L 275.117188 174.457031 L 275.277344 174.53125 L 275.601563 174.691406 L 275.621094 174.699219 L 275.640625 174.710938 L 275.683594 174.730469 L 275.761719 174.773438 L 275.925781 174.859375 L 276.246094 175.042969 L 276.269531 175.058594 L 276.292969 175.070313 L 276.335938 175.097656 L 276.421875 175.148438 L 276.597656 175.257813 L 276.949219 175.484375 L 277.648438 175.988281 L 277.671875 176.003906 L 277.691406 176.019531 L 277.734375 176.054688 L 277.992188 176.253906 L 278.335938 176.539063 L 279.023438 177.148438 L 279.042969 177.167969 L 279.066406 177.1875 L 279.105469 177.222656 L 279.183594 177.300781 L 279.34375 177.453125 L 279.667969 177.769531 L 280.308594 178.445313 L 281.699219 180.09375 L 283 181.855469 L 284.40625 184.019531 L 285.789063 186.390625 L 287.078125 188.832031 L 288.472656 191.71875 L 289.78125 194.640625 L 291.058594 197.710938 L 292.445313 201.261719 L 293.742188 204.785156 L 295.144531 208.808594 L 296.523438 212.96875 L 297.808594 217.015625 L 299.203125 221.578125 L 300.503906 225.988281 L 301.78125 230.4375 L 303.164063 235.390625 L 304.457031 240.121094 L 305.855469 245.34375 L 307.230469 250.546875 L 308.511719 255.460938 L 309.902344 260.832031 L 311.199219 265.871094 L 312.605469 271.339844 L 313.984375 276.703125 L 315.273438 281.683594 L 316.667969 287.042969 L 317.972656 292 L 319.25 296.796875 L 320.636719 301.921875 L 321.929688 306.617188 L 323.332031 311.601563 L 324.710938 316.375 L 325.996094 320.710938 L 327.386719 325.277344 L 328.6875 329.410156 L 329.960938 333.324219 L 331.34375 337.417969 L 332.632813 341.085938 L 334.03125 344.894531 L 335.339844 348.289063 L 336.617188 351.457031 L 338.007813 354.714844 L 339.304688 357.585938 L 340.707031 360.507813 L 342.085938 363.183594 L 343.375 365.507813 L 344.769531 367.835938 L 346.070313 369.828125 L 347.347656 371.613281 L 348.730469 373.359375 L 350.023438 374.808594 L 351.425781 376.183594 L 351.445313 376.203125 L 351.46875 376.222656 L 351.597656 376.339844 L 351.769531 376.492188 L 352.113281 376.785156 L 352.800781 377.335938 L 352.878906 377.398438 L 352.960938 377.460938 L 353.121094 377.578125 L 353.441406 377.808594 L 354.082031 378.234375 L 354.105469 378.25 L 354.125 378.261719 L 354.167969 378.289063 L 354.257813 378.34375 L 354.429688 378.449219 L 354.777344 378.652344 L 354.800781 378.664063 L 354.820313 378.675781 L 354.867188 378.699219 L 355.125 378.839844 L 355.472656 379.015625 L 355.496094 379.027344 L 355.515625 379.035156 L 355.554688 379.054688 L 355.636719 379.09375 L 355.796875 379.167969 L 356.125 379.3125 L 356.203125 379.34375 L 356.285156 379.378906 L 356.449219 379.441406 L 356.773438 379.5625 L 356.792969 379.570313 L 356.816406 379.578125 L 356.859375 379.59375 L 356.949219 379.625 L 357.125 379.679688 L 357.144531 379.6875 L 357.167969 379.695313 L 357.210938 379.707031 L 357.300781 379.734375 L 357.476563 379.785156 L 357.496094 379.792969 L 357.519531 379.796875 L 357.5625 379.808594 L 357.652344 379.832031 L 357.828125 379.878906 L 358.179688 379.957031 L 358.199219 379.960938 L 358.222656 379.964844 L 358.265625 379.972656 L 358.351563 379.992188 L 358.523438 380.023438 L 358.546875 380.027344 L 358.566406 380.03125 L 358.609375 380.035156 L 358.695313 380.050781 L 358.871094 380.074219 L 358.890625 380.078125 L 358.914063 380.082031 L 358.957031 380.085938 L 359.042969 380.097656 L 359.0625 380.101563 L 359.085938 380.101563 L 359.128906 380.105469 L 359.214844 380.117188 L 359.238281 380.117188 L 359.257813 380.121094 L 359.386719 380.132813 L 359.410156 380.132813 L 359.429688 380.136719 L 359.472656 380.136719 L 359.558594 380.144531 L 359.582031 380.144531 L 359.601563 380.148438 L 359.660156 380.148438 L 359.679688 380.152344 L 359.742188 380.152344 L 359.761719 380.15625 L 359.84375 380.15625 L 359.882813 380.160156 L 359.984375 380.160156 L 360.003906 380.164063 L 360.347656 380.164063 L 360.367188 380.160156 L 360.488281 380.160156 L 360.527344 380.15625 L 360.566406 380.15625 L 360.609375 380.152344 L 360.648438 380.152344 L 360.6875 380.148438 L 360.726563 380.148438 L 360.769531 380.144531 L 360.847656 380.140625 L 360.871094 380.136719 L 360.894531 380.136719 L 361.023438 380.125 L 361.046875 380.125 L 361.066406 380.121094 L 361.109375 380.117188 L 361.199219 380.109375 L 361.21875 380.105469 L 361.242188 380.105469 L 361.285156 380.097656 L 361.375 380.089844 L 361.546875 380.066406 L 361.570313 380.0625 L 361.589844 380.058594 L 361.636719 380.050781 L 361.722656 380.039063 L 361.898438 380.007813 L 361.917969 380.003906 L 361.941406 380 L 362.070313 379.976563 L 362.265625 379.9375 L 362.285156 379.929688 L 362.328125 379.921875 L 362.574219 379.863281 L 362.898438 379.777344 L 362.917969 379.773438 L 362.9375 379.765625 L 362.980469 379.753906 L 363.0625 379.730469 L 363.226563 379.679688 L 363.550781 379.570313 L 363.589844 379.554688 L 363.628906 379.542969 L 363.710938 379.511719 L 363.871094 379.453125 L 364.191406 379.324219 L 364.230469 379.308594 L 364.269531 379.289063 L 364.351563 379.257813 L 364.511719 379.1875 L 364.828125 379.035156 L 364.851563 379.027344 L 364.871094 379.015625 L 365.175781 378.863281 L 365.523438 378.675781 L 366.21875 378.265625 L 366.238281 378.25 L 366.296875 378.214844 L 366.378906 378.160156 L 366.539063 378.054688 L 366.863281 377.835938 L 367.511719 377.363281 L 367.535156 377.347656 L 367.554688 377.328125 L 367.597656 377.296875 L 367.6875 377.226563 L 367.863281 377.089844 L 368.214844 376.800781 L 368.914063 376.191406 L 370.292969 374.839844 L 371.578125 373.402344 L 372.96875 371.652344 L 374.269531 369.835938 L 375.546875 367.886719 L 376.929688 365.582031 L 378.222656 363.257813 L 379.621094 360.542969 L 380.925781 357.832031 L 382.207031 355.011719 L 383.597656 351.769531 L 384.894531 348.574219 L 386.300781 344.929688 L 387.679688 341.175781 L 388.96875 337.519531 L 390.363281 333.390625 L 391.667969 329.386719 L 392.945313 325.328125 L 394.328125 320.78125 L 395.621094 316.417969 L 397.023438 311.558594 L 398.402344 306.667969 L 399.683594 302.007813 L 401.074219 296.867188 L 402.375 291.988281 L 403.648438 287.148438 L 405.03125 281.839844 L 406.320313 276.855469 L 407.71875 271.421875 L 409.023438 266.34375 L 410.304688 261.375 L 411.691406 256.007813 L 412.988281 251.039063 L 414.390625 245.710938 L 415.769531 240.5625 L 417.054688 235.847656 L 418.449219 230.847656 L 419.75 226.296875 L 421.027344 221.960938 L 422.414063 217.414063 L 423.703125 213.332031 L 425.105469 209.09375 L 426.480469 205.132813 L 427.761719 201.628906 L 429.152344 198.046875 L 430.449219 194.910156 L 431.855469 191.753906 L 433.238281 188.894531 L 434.523438 186.453125 L 435.921875 184.046875 L 437.226563 182.035156 L 438.503906 180.277344 L 439.890625 178.609375 L 439.910156 178.585938 L 439.929688 178.566406 L 439.972656 178.519531 L 440.050781 178.429688 L 440.214844 178.257813 L 440.539063 177.917969 L 441.183594 177.277344 L 441.207031 177.257813 L 441.226563 177.234375 L 441.273438 177.195313 L 441.359375 177.113281 L 441.535156 176.953125 L 441.886719 176.644531 L 442.585938 176.070313 L 442.609375 176.054688 L 442.628906 176.039063 L 442.671875 176.003906 L 442.757813 175.941406 L 442.929688 175.8125 L 443.277344 175.570313 L 443.296875 175.554688 L 443.320313 175.539063 L 443.363281 175.511719 L 443.449219 175.453125 L 443.621094 175.339844 L 443.964844 175.125 L 444.042969 175.078125 L 444.125 175.03125 L 444.285156 174.9375 L 444.605469 174.761719 L 444.625 174.75 L 444.644531 174.742188 L 444.6875 174.71875 L 444.765625 174.679688 L 444.925781 174.597656 L 445.25 174.449219 L 445.269531 174.4375 L 445.292969 174.429688 L 445.421875 174.371094 L 445.597656 174.296875 L 445.945313 174.160156 L 445.964844 174.152344 L 445.988281 174.144531 L 446.117188 174.097656 L 446.292969 174.039063 L 446.640625 173.929688 L 446.660156 173.925781 L 446.683594 173.917969 L 446.722656 173.910156 L 446.804688 173.886719 L 446.964844 173.84375 L 446.988281 173.835938 L 447.046875 173.824219 L 447.292969 173.765625 L 447.371094 173.75 L 447.453125 173.730469 L 447.617188 173.699219 L 447.636719 173.699219 L 447.65625 173.695313 L 447.699219 173.6875 L 447.777344 173.671875 L 447.941406 173.648438 L 447.980469 173.640625 L 448.019531 173.636719 L 448.101563 173.625 L 448.121094 173.621094 L 448.140625 173.621094 L 448.179688 173.617188 L 448.261719 173.605469 L 448.28125 173.605469 L 448.300781 173.601563 L 448.417969 173.589844 L 448.4375 173.585938 L 448.460938 173.585938 L 448.578125 173.574219 L 448.617188 173.574219 L 448.660156 173.570313 L 448.679688 173.570313 L 448.699219 173.566406 L 448.738281 173.566406 L 448.757813 173.5625 L 448.777344 173.5625 L 448.816406 173.558594 L 448.859375 173.558594 L 448.898438 173.554688 L 448.976563 173.554688 L 448.996094 173.550781 L 449.117188 173.550781 L 449.136719 173.546875 L 449.519531 173.546875 L 449.539063 173.550781 L 449.648438 173.550781 L 449.667969 173.554688 L 449.757813 173.554688 L 449.777344 173.558594 L 449.820313 173.558594 L 449.90625 173.5625 L 449.929688 173.566406 L 449.949219 173.566406 L 449.992188 173.570313 L 450.082031 173.578125 L 450.125 173.578125 L 450.253906 173.589844 L 450.273438 173.59375 L 450.296875 173.59375 L 450.339844 173.601563 L 450.425781 173.609375 L 450.597656 173.628906 L 450.621094 173.632813 L 450.640625 173.636719 L 450.679688 173.640625 L 450.761719 173.652344 L 450.921875 173.675781 L 450.960938 173.683594 L 451.003906 173.691406 L 451.082031 173.703125 L 451.246094 173.734375 L 451.324219 173.75 L 451.40625 173.765625 L 451.566406 173.800781 L 451.890625 173.878906 L 451.910156 173.882813 L 451.933594 173.890625 L 452.0625 173.925781 L 452.238281 173.972656 L 452.589844 174.082031 L 452.609375 174.085938 L 452.632813 174.09375 L 452.675781 174.109375 L 452.765625 174.136719 L 452.9375 174.199219 L 453.289063 174.328125 L 453.328125 174.34375 L 453.371094 174.359375 L 453.453125 174.390625 L 453.613281 174.457031 L 453.941406 174.597656 L 454.59375 174.902344 L 454.613281 174.914063 L 454.632813 174.921875 L 454.675781 174.941406 L 454.753906 174.984375 L 454.914063 175.066406 L 455.234375 175.238281 L 455.875 175.609375 L 455.898438 175.621094 L 455.917969 175.632813 L 456.046875 175.714844 L 456.222656 175.820313 L 456.570313 176.046875 L 457.265625 176.519531 L 458.5625 177.5 L 459.964844 178.691406 L 461.34375 179.988281 L 462.632813 181.296875 L 464.027344 182.816406 L 465.328125 184.324219 L 466.605469 185.875 L 467.992188 187.632813 L 469.285156 189.339844 L 470.683594 191.25 L 472.0625 193.179688 L 473.34375 195.023438 L 474.734375 197.066406 L 476.035156 199.003906 L 477.441406 201.136719 L 478.824219 203.253906 L 480.113281 205.25 L 481.507813 207.425781 L 482.8125 209.46875 L 484.09375 211.476563 L 485.480469 213.660156 L 486.777344 215.695313 L 488.179688 217.902344 L 489.558594 220.0625 L 490.84375 222.066406 L 492.234375 224.234375 L 493.539063 226.242188 L 494.8125 228.199219 L 496.195313 230.308594 L 497.488281 232.257813 L 498.886719 234.355469 L 500.261719 236.390625 L 501.542969 238.269531 L 502.933594 240.289063 L 504.230469 242.148438 L 505.636719 244.140625 L 507.015625 246.070313 L 508.304688 247.847656 L 509.699219 249.75 L 511.003906 251.5 L 512.28125 253.195313 L 513.667969 255.007813 L 514.960938 256.675781 L 516.363281 258.453125 L 517.738281 260.175781 L 519.023438 261.753906 L 520.414063 263.441406 L 521.714844 264.992188 L 522.988281 266.488281 L 524.371094 268.089844 L 525.660156 269.554688 L 527.058594 271.121094 L 528.367188 272.558594 L 529.644531 273.945313 L 531.035156 275.425781 L 532.332031 276.785156 L 533.734375 278.234375 L 535.113281 279.628906 L 536.398438 280.910156 L 537.792969 282.277344 L 539.097656 283.527344 L 540.371094 284.738281 L 541.757813 286.027344 L 543.050781 287.210938 L 544.449219 288.472656 L 545.824219 289.6875 L 547.109375 290.800781 L 548.5 291.988281 L 549.796875 293.078125 L 551.203125 294.242188 L 552.585938 295.359375 L 553.871094 296.386719 L 555.269531 297.484375 L 556.574219 298.488281 L 557.851563 299.457031 L 559.238281 300.488281 L 560.535156 301.4375 L 561.9375 302.449219 L 563.316406 303.421875 L 564.597656 304.316406 L 565.992188 305.269531 L 567.292969 306.144531 L 568.566406 306.988281 L 569.953125 307.890625 L 571.242188 308.714844 L 572.640625 309.597656 L 573.949219 310.40625 L 575.230469 311.1875 L 576.617188 312.019531 L 577.914063 312.785156 L 579.320313 313.601563 L 580.699219 314.386719 L 581.988281 315.109375 L 583.382813 315.878906 L 584.683594 316.585938 L 585.960938 317.269531 L 587.347656 318 L 588.640625 318.667969 L 590.042969 319.382813 L 591.417969 320.074219 L 592.703125 320.707031 L 594.09375 321.382813 L 595.394531 322.003906 L 596.800781 322.667969 L 598.183594 323.304688 L 599.472656 323.894531 L 600.871094 324.523438 L 602.175781 325.097656 L 603.453125 325.65625 L 604.84375 326.25 L 606.136719 326.796875 L 607.542969 327.382813 L 608.917969 327.945313 L 610.203125 328.464844 L 611.597656 329.019531 L 612.898438 329.527344 L 614.175781 330.019531 L 615.558594 330.546875 L 616.851563 331.03125 L 618.253906 331.546875 L 619.625 332.046875 L 620.910156 332.503906 L 622.296875 332.996094 L 623.597656 333.445313 L 625.003906 333.929688 L 626.382813 334.394531 L 626.421875 334.410156 L 626.460938 334.421875 L 626.539063 334.449219 L 626.691406 334.5 L 627.003906 334.601563 L 627.042969 334.617188 L 627.082031 334.628906 L 627.160156 334.65625 L 627.3125 334.707031 L 627.332031 334.710938 L 627.351563 334.71875 L 627.390625 334.730469 L 627.46875 334.757813 L 627.488281 334.765625 L 627.507813 334.769531 L 627.546875 334.78125 L 627.585938 334.796875 L 627.605469 334.800781 L 627.625 334.808594 "
         style="fill:none;stroke-width:2.674507;stroke-linecap:square;stroke-linejoin:miter;stroke:rgb(36.84082%,50.67749%,70.979309%);stroke-opacity:1;stroke-miterlimit:3.25;" />
    </g>
    <path
       id="path64"
       transform="matrix(1,0,0,1,-92,-14)"
       d="M 275.199219 173.316406 L 452.746094 174.21875 "
       style="fill:none;stroke-width:1.35917;stroke-linecap:square;stroke-linejoin:miter;stroke:rgb(41.091919%,41.091919%,41.091919%);stroke-opacity:1;stroke-dasharray:5.6,5.6;stroke-miterlimit:3.25;" />
    <g
       id="g68"
       clip-path="url(#clip2)"
       transform="matrix(1.0187553,0,0,1,-10.088204,0)"
       style="clip-rule:nonzero">
      <path
         id="path66"
         transform="translate(-92,-14)"
         d="m 110.39063,90.554688 519.49609,0.898437"
         style="fill:none;stroke:#686868;stroke-width:1.35916996;stroke-linecap:square;stroke-linejoin:miter;stroke-miterlimit:3.25;stroke-dasharray:5.6, 5.6;stroke-opacity:1"
         inkscape:connector-curvature="0" />
    </g>
    <path
       id="path70"
       transform="matrix(1,0,0,1,-92,-14)"
       d="M 316.660156 267.492188 L 406.257813 268.394531 "
       style="fill:none;stroke-width:1.35917;stroke-linecap:square;stroke-linejoin:miter;stroke:rgb(41.091919%,41.091919%,41.091919%);stroke-opacity:1;stroke-dasharray:5.6,5.6;stroke-miterlimit:3.25;" />
    <g
       id="g74"
       clip-path="url(#clip3)"
       clip-rule="nonzero">
      <path
         id="path72"
         transform="matrix(1,0,0,1,-92,-14)"
         d="M 524.777344 265.316406 L 622.960938 266.21875 "
         style="fill:none;stroke-width:1.35917;stroke-linecap:square;stroke-linejoin:miter;stroke:rgb(41.091919%,41.091919%,41.091919%);stroke-opacity:1;stroke-dasharray:5.6,5.6;stroke-miterlimit:3.25;" />
    </g>
    <path
       id="path76"
       transform="matrix(1,0,0,1,-92,-14)"
       d="M 99.34375 266.316406 L 198.550781 267.21875 "
       style="fill:none;stroke-width:1.35917;stroke-linecap:square;stroke-linejoin:miter;stroke:rgb(41.091919%,41.091919%,41.091919%);stroke-opacity:1;stroke-dasharray:5.6,5.6;stroke-miterlimit:3.25;" />
    <g
       id="g80"
       clip-path="url(#clip4)"
       clip-rule="nonzero">
      <path
         id="path78"
         transform="matrix(1,0,0,1,-92,-14)"
         d="M 453.90625 173.730469 L 631.453125 174.628906 "
         style="fill:none;stroke-width:1.35917;stroke-linecap:square;stroke-linejoin:miter;stroke:rgb(41.091919%,41.091919%,41.091919%);stroke-opacity:1;stroke-dasharray:5.6,5.6;stroke-miterlimit:3.25;" />
    </g>
    <path
       id="path82"
       d="M 5.9766659,158.90625 173.80469,159.80469"
       style="fill:none;stroke:#686868;stroke-width:1.32144618;stroke-linecap:square;stroke-linejoin:miter;stroke-miterlimit:3.25;stroke-dasharray:5.44457204, 5.44457204;stroke-opacity:1"
       inkscape:connector-curvature="0" />
    <g
       id="g86"
       clip-path="url(#clip5)"
       clip-rule="nonzero">
      <path
         id="path84"
         transform="matrix(1,0,0,1,-92,-14)"
         d="M 408.269531 279.300781 L 408.230469 396.332031 "
         style="fill:none;stroke-width:1.35917;stroke-linecap:square;stroke-linejoin:miter;stroke:rgb(41.091919%,41.091919%,41.091919%);stroke-opacity:1;stroke-dasharray:5.6,5.6;stroke-miterlimit:3.25;" />
    </g>
    <g
       id="g90"
       clip-path="url(#clip6)"
       clip-rule="nonzero">
      <path
         id="path88"
         transform="matrix(1,0,0,1,-92,-14)"
         d="M 520.769531 267.890625 L 520.730469 385.914063 "
         style="fill:none;stroke-width:1.35917;stroke-linecap:square;stroke-linejoin:miter;stroke:rgb(41.091919%,41.091919%,41.091919%);stroke-opacity:1;stroke-dasharray:5.6,5.6;stroke-miterlimit:3.25;" />
    </g>
    <g
       id="g94"
       clip-path="url(#clip7)"
       clip-rule="nonzero">
      <path
         id="path92"
         transform="matrix(1,0,0,1,-92,-14)"
         d="M 310.769531 272.804688 L 310.730469 380.910156 "
         style="fill:none;stroke-width:1.35917;stroke-linecap:square;stroke-linejoin:miter;stroke:rgb(41.091919%,41.091919%,41.091919%);stroke-opacity:1;stroke-dasharray:5.6,5.6;stroke-miterlimit:3.25;" />
    </g>
    <g
       id="g98"
       clip-path="url(#clip8)"
       clip-rule="nonzero">
      <path
         id="path96"
         transform="matrix(1,0,0,1,-92,-14)"
         d="M 197.769531 269.804688 L 197.730469 377.910156 "
         style="fill:none;stroke-width:1.35917;stroke-linecap:square;stroke-linejoin:miter;stroke:rgb(41.091919%,41.091919%,41.091919%);stroke-opacity:1;stroke-dasharray:5.6,5.6;stroke-miterlimit:3.25;" />
    </g>
    <path
       id="path100"
       transform="matrix(1,0,0,1,-92,-14)"
       d="M 181.871094 380.164063 L 181.871094 376.164063 "
       style="fill:none;stroke-width:1.444234;stroke-linecap:butt;stroke-linejoin:miter;stroke:rgb(39.99939%,39.99939%,39.99939%);stroke-opacity:1;stroke-miterlimit:3.25;" />
    <g
       id="g108"
       style="fill:rgb(39.99939%,39.99939%,39.99939%);fill-opacity:1;" />
    <path
       id="path110"
       transform="matrix(1,0,0,1,-92,-14)"
       d="M 271.023438 380.164063 L 271.023438 376.164063 "
       style="fill:none;stroke-width:1.444234;stroke-linecap:butt;stroke-linejoin:miter;stroke:rgb(39.99939%,39.99939%,39.99939%);stroke-opacity:1;stroke-miterlimit:3.25;" />
    <g
       id="g114"
       style="fill:rgb(39.99939%,39.99939%,39.99939%);fill-opacity:1;">
      <use
         id="use112"
         y="390.363724"
         x="166.022588"
         xlink:href="#glyph0-1" />
    </g>
    <g
       id="g118"
       style="fill:rgb(39.99939%,39.99939%,39.99939%);fill-opacity:1;">
      <use
         id="use116"
         y="390.363724"
         x="180.022588"
         xlink:href="#glyph1-2" />
    </g>
    <path
       id="path120"
       transform="matrix(1,0,0,1,-92,-14)"
       d="M 360.171875 380.164063 L 360.171875 376.164063 "
       style="fill:none;stroke-width:1.444234;stroke-linecap:butt;stroke-linejoin:miter;stroke:rgb(39.99939%,39.99939%,39.99939%);stroke-opacity:1;stroke-miterlimit:3.25;" />
    <g
       id="g124"
       style="fill:rgb(39.99939%,39.99939%,39.99939%);fill-opacity:1;">
      <use
         id="use122"
         y="390.363724"
         x="262.172823"
         xlink:href="#glyph1-3" />
    </g>
    <path
       id="path126"
       transform="matrix(1,0,0,1,-92,-14)"
       d="M 449.324219 380.164063 L 449.324219 376.164063 "
       style="fill:none;stroke-width:1.444234;stroke-linecap:butt;stroke-linejoin:miter;stroke:rgb(39.99939%,39.99939%,39.99939%);stroke-opacity:1;stroke-miterlimit:3.25;" />
    <g
       id="g130"
       style="fill:rgb(39.99939%,39.99939%,39.99939%);fill-opacity:1;">
      <use
         id="use128"
         y="390.363724"
         x="351.323058"
         xlink:href="#glyph1-2" />
    </g>
    <path
       id="path132"
       transform="matrix(1,0,0,1,-92,-14)"
       d="M 538.472656 380.164063 L 538.472656 376.164063 "
       style="fill:none;stroke-width:1.444234;stroke-linecap:butt;stroke-linejoin:miter;stroke:rgb(39.99939%,39.99939%,39.99939%);stroke-opacity:1;stroke-miterlimit:3.25;" />
    <path
       id="path138"
       transform="matrix(1,0,0,1,-92,-14)"
       d="M 92.722656 380.164063 L 627.625 380.164063 "
       style="fill:none;stroke-width:1.444234;stroke-linecap:butt;stroke-linejoin:miter;stroke:rgb(0%,0%,0%);stroke-opacity:1;stroke-miterlimit:3.25;" />
    <g
       id="g142"
       style="fill:rgb(39.99939%,39.99939%,39.99939%);fill-opacity:1;">
      <use
         id="use140"
         y="373.163724"
         x="547.823529"
         xlink:href="#glyph2-1" />
    </g>
    <path
       id="path144"
       transform="matrix(1,0,0,1,-92,-14)"
       d="M 360.171875 173.546875 L 364.171875 173.546875 "
       style="fill:none;stroke-width:1.444234;stroke-linecap:butt;stroke-linejoin:miter;stroke:rgb(39.99939%,39.99939%,39.99939%);stroke-opacity:1;stroke-miterlimit:3.25;" />
    <g
       id="g148"
       style="fill:rgb(39.99939%,39.99939%,39.99939%);fill-opacity:1;">
      <use
         id="use146"
         y="167.046691"
         x="251.972823"
         xlink:href="#glyph1-2" />
    </g>
    <path
       id="path150"
       transform="matrix(1,0,0,1,-92,-14)"
       d="M 360.171875 380.164063 L 360.171875 49.578125 "
       style="fill:none;stroke-width:1.444234;stroke-linecap:butt;stroke-linejoin:miter;stroke:rgb(0%,0%,0%);stroke-opacity:1;stroke-miterlimit:3.25;" />
    <g
       id="g156"
       clip-path="url(#clip9)"
       clip-rule="nonzero">
      <g
         id="g154"
         style="fill:rgb(39.99939%,39.99939%,39.99939%);fill-opacity:1;">
        <use
           id="use152"
           y="21.176471"
           x="262.172823"
           xlink:href="#glyph2-2" />
      </g>
    </g>
  </g>
  <g
     ns0:preamble="default_packages.tex"
     ns0:text="$e &gt; 1 \\qquad e=1 \\qquad e&lt;1 \\qquad a \\qquad b \\qquad -a \\qquad -b$\n"
     word-spacing="normal"
     letter-spacing="normal"
     font-size-adjust="none"
     font-stretch="normal"
     font-weight="normal"
     font-variant="normal"
     font-style="normal"
     stroke-miterlimit="10.433"
     xml:space="preserve"
     transform="matrix(2.600000, 0, 0, -2.600000, -408.272000, 2042.761000)"
     id="content"
     text-anchor="start"
     stroke-dashoffset="0"
     stroke-dasharray="none"
     stroke-opacity="1"
     stroke-linejoin="miter"
     stroke-linecap="butt"
     stroke="black"
     fill-rule="evenodd"
     fill-opacity="1"
     fill="black"><path
       id="path7896"
       d="m 273.62934,760.30022 0.0177,0.01 h 0.009 l 0.009,0.01 h 0.009 l 0.009,0.01 h 0.009 l 0.009,0.01 h 0.009 v 0.01 h 0.009 l 0.009,0.01 0.009,0.01 v 0 l 0.009,0.01 h 0.009 v 0.01 l 0.009,0.01 v 0 l 0.009,0.01 v 0.01 h 0.009 v 0.01 l 0.009,0.01 v 0.01 0.01 l 0.009,0.01 v 0.01 0.01 0.01 0.01 0.01 c 0,0.10928 -0.0707,0.15485 -0.16768,0.2004 l -4.87146,2.35913 c -0.11469,0.0637 -0.13238,0.0637 -0.15884,0.0637 -0.0971,0 -0.17651,-0.0819 -0.17651,-0.18217 0,-0.0819 0.0442,-0.13667 0.16769,-0.2004 l 4.61552,-2.24072 -4.61552,-2.24071 c -0.12363,-0.0729 -0.16769,-0.11843 -0.16769,-0.20039 0,-0.10017 0.0794,-0.18218 0.17651,-0.18218 0.0265,0 0.0442,0 0.15884,0.0637 z"
       inkscape:connector-curvature="0"
       style="fill:#000000;stroke-width:0" /><path
       id="path7902"
       d="m 273.8146,729.48925 h 0.0234 0.0235 0.0157 l 0.0157,0.0134 h 0.008 0.0157 0.008 0.0157 0.008 l 0.008,0.0134 h 0.0157 0.008 l 0.008,0.0134 h 0.0157 l 0.008,0.0134 h 0.008 l 0.008,0.0134 0.008,0.0134 0.008,0.0134 0.008,0.0134 v 0.0134 h 0.008 v 0.0134 h 0.008 v 0.0134 0.0134 0 l 0.008,0.0134 v 0.0134 0 0.0134 0.0134 0.0134 l 0.008,0.0134 v 0 0.0134 0.0134 c 0,0.26722 -0.14887,0.26722 -0.25857,0.26722 h -4.68554 c -0.10194,0 -0.25073,0 -0.25073,-0.26722 0,-0.26724 0.14886,-0.26724 0.26639,-0.26724 z"
       inkscape:connector-curvature="0"
       style="fill:#000000;stroke-width:0" /><path
       id="path7904"
       d="m 273.82243,726.92383 h 0.008 0.008 0.0234 0.0236 0.008 0.0157 0.008 0.0157 0.008 l 0.008,0.0134 h 0.0157 0.008 l 0.008,0.0134 h 0.008 l 0.0157,0.0134 h 0.008 l 0.008,0.0134 h 0.008 l 0.008,0.0134 0.008,0.0134 0.008,0.0134 v 0 l 0.008,0.0134 v 0.0134 0 l 0.008,0.0134 v 0 0.0134 0.0134 h 0.008 v 0.0134 0.0134 0 0.0134 0.0134 l 0.008,0.0134 v 0.0134 0.0134 0.0134 c 0,0.25386 -0.14886,0.25386 -0.2664,0.25386 h -4.66204 c -0.11756,0 -0.2664,0 -0.2664,-0.25386 0,-0.26724 0.14887,-0.26724 0.25073,-0.26724 z"
       inkscape:connector-curvature="0"
       style="fill:#000000;stroke-width:0" /><path
       id="path7908"
       d="m 263.10084,691.73713 h 0.0178 0.0267 0.0355 0.0267 0.0355 0.0355 0.0355 l 0.0445,0.009 h 0.0355 0.0445 0.0355 l 0.0445,0.009 h 0.0445 l 0.0445,0.009 0.0978,0.009 0.0978,0.009 0.089,0.009 0.0978,0.0182 0.0978,0.0183 0.0978,0.0274 0.0445,0.009 0.0445,0.0183 0.0445,0.009 0.0445,0.0182 0.0445,0.0183 0.0445,0.0182 c 0.62254,0.27418 0.66701,0.80427 0.66701,0.93223 0,0.40213 -0.33795,0.77684 -0.9516,0.77684 v -0.20107 c 0.418,0 0.65811,-0.26503 0.65811,-0.57577 0,-0.94137 -1.42294,-0.94137 -1.77867,-0.94137 h -0.36463 c 0.33795,1.38005 1.25396,1.51714 1.48519,1.51714 v 0.20107 c -0.97826,0 -2.32117,-0.88652 -2.32117,-2.47678 0,-0.92309 0.52471,-1.63596 1.38736,-1.63596 1.27176,0 2.01881,0.95964 2.01881,1.06931 0,0.0549 -0.0533,0.11882 -0.10674,0.11882 -0.0445,0 -0.0623,-0.0182 -0.11555,-0.0914 -0.70258,-0.90482 -1.67195,-0.90482 -1.77867,-0.90482 -0.6848,0 -0.76483,0.76772 -0.76483,1.06019 0,0.10963 0.009,0.38385 0.14228,0.94135 z"
       inkscape:connector-curvature="0"
       style="fill:#000000;stroke-width:0" /><path
       id="path7910"
       d="m 272.17405,693.98978 0.009,0.009 h 0.009 l 0.009,0.009 h 0.009 l 0.009,0.009 0.009,0.009 h 0.009 l 0.009,0.009 h 0.009 l 0.009,0.009 v 0 l 0.009,0.009 h 0.009 l 0.009,0.009 v 0.009 h 0.009 v 0.009 l 0.009,0.009 h 0.009 v 0.009 l 0.009,0.009 v 0 0.009 l 0.009,0.009 v 0.009 0.009 0 l 0.009,0.009 v 0.009 0.009 0.009 0.009 c 0,0.10057 -0.08,0.1828 -0.17786,0.1828 -0.0267,0 -0.0445,0 -0.16007,-0.0639 l -4.91805,-2.36712 c -0.089,-0.0457 -0.16008,-0.0914 -0.16008,-0.20106 0,-0.10963 0.0712,-0.15537 0.16008,-0.20107 l 4.91805,-2.36712 c 0.11555,-0.0639 0.1334,-0.0639 0.16007,-0.0639 0.0978,0 0.17786,0.0822 0.17786,0.1828 0,0.10056 -0.0623,0.14623 -0.16896,0.20105 l -4.66013,2.24832 z"
       inkscape:connector-curvature="0"
       style="fill:#000000;stroke-width:0" /><path
       id="path7912"
       d="m 276.63688,694.93981 v 0.009 0.009 0.0182 0.009 0 0.009 0.009 0.009 0.009 0.009 0.009 0.009 0 0.009 0.009 0 0.009 0.009 0.009 l -0.009,0.009 v 0.009 0.009 l -0.009,0.009 v 0 0.009 l -0.009,0.009 h -0.009 v 0.009 h -0.009 l -0.009,0.009 h -0.009 v 0 h -0.009 v 0 h -0.009 v 0 l -0.009,0.009 h -0.009 v 0 h -0.009 -0.009 v 0 h -0.009 -0.009 -0.009 -0.009 -0.009 -0.009 -0.009 -0.009 -0.009 -0.009 c -0.54248,-0.57579 -1.32511,-0.57579 -1.60969,-0.57579 v -0.28331 c 0.17786,0 0.70258,0 1.16503,0.22849 v -4.69768 c 0,-0.32902 -0.0267,-0.43869 -0.82708,-0.43869 h -0.28459 v -0.28333 c 0.31127,0.0365 1.085,0.0365 1.43183,0.0365 0.35574,0 1.12946,0 1.44073,-0.0365 v 0.28333 h -0.28459 c -0.8004,0 -0.82709,0.10057 -0.82709,0.43869 z"
       inkscape:connector-curvature="0"
       style="fill:#000000;stroke-width:0" /><path
       id="path7914"
       d="m 280.62478,640.31509 -0.02,0.03 -0.02,0.04 -0.01,0.03 -0.02,0.03 -0.02,0.03 -0.02,0.03 -0.03,0.03 -0.02,0.03 -0.02,0.03 -0.02,0.03 -0.03,0.03 -0.02,0.02 -0.03,0.03 -0.02,0.02 -0.03,0.02 -0.03,0.03 -0.03,0.02 -0.03,0.02 -0.03,0.01 -0.03,0.02 -0.03,0.02 -0.03,0.01 -0.04,0.02 -0.03,0.01 -0.04,0.01 -0.03,0.01 -0.04,0.01 h -0.04 l -0.04,0.01 h -0.04 l -0.04,0.01 h -0.04 c -1.17,0 -2.4,-1.47 -2.4,-2.91 0,-0.94 0.55,-1.59 1.32,-1.59 l 0.02,0.21 c -0.49,0 -0.63,0.55 -0.63,0.94 0,0.5 0.32,1.72 0.54,2.17 0.31,0.59 0.76,0.96 1.16,0.96 0.65,0 0.79,-0.82 0.79,-0.88 0,-0.06 -0.02,-0.12 -0.03,-0.17 l -0.5,-1.94 c -0.05,-0.18 -0.05,-0.2 -0.2,-0.37 -0.44,-0.55 -0.85,-0.71 -1.13,-0.71 l -0.02,-0.21 c 0.2,0 0.7,0.03 1.3,0.74 0.08,-0.42 0.43,-0.74 0.91,-0.74 0.35,0 0.58,0.22 0.74,0.54 0.17,0.36 0.3,0.97 0.3,0.99 0,0.1 -0.09,0.1 -0.12,0.1 -0.1,0 -0.11,-0.04 -0.14,-0.18 -0.17,-0.65 -0.35,-1.24 -0.76,-1.24 -0.27,0 -0.3,0.26 -0.3,0.46 0,0.22 0.02,0.3 0.13,0.74 0.11,0.41 0.13,0.51 0.22,0.89 l 0.36,1.39 c 0.07,0.28 0.07,0.3 0.07,0.34 0,0.17 -0.12,0.27 -0.29,0.27 -0.24,0 -0.39,-0.22 -0.42,-0.44 z"
       inkscape:connector-curvature="0"
       style="fill:#000000;stroke-width:0" /><path
       id="path7916"
       d="m 321.92403,642.63344 v 0 0 0 0.01 0 0 0 0.01 0 0.01 0 0 0.01 0 l -0.01,0.01 v 0 0.01 h -0.01 v 0.01 0 l -0.01,0.01 v 0 0 h -0.01 v 0.01 0 0 h -0.01 v 0 0.01 h -0.01 v 0 h -0.01 v 0 0 h -0.01 v 0 l -0.01,0.01 v 0 h -0.01 v 0 h -0.01 v 0 h -0.01 -0.01 c -0.22,0 -0.95,-0.08 -1.21,-0.1 -0.08,-0.01 -0.19,-0.02 -0.19,-0.2 0,-0.12 0.09,-0.12 0.24,-0.12 0.48,0 0.5,-0.07 0.5,-0.17 0,-0.07 -0.09,-0.4 -0.14,-0.61 l -0.82,-3.24 c -0.12,-0.5 -0.16,-0.66 -0.16,-1.01 0,-0.94 0.53,-1.55 1.27,-1.55 v 0.21 c -0.34,0 -0.67,0.27 -0.67,1.01 0,0.19 0,0.37 0.16,1 l 0.22,0.92 c 0.06,0.21 0.06,0.23 0.15,0.34 0.49,0.65 0.93,0.8 1.19,0.8 0.36,0 0.63,-0.3 0.63,-0.94 0,-0.58 -0.33,-1.73 -0.51,-2.1 -0.33,-0.67 -0.79,-1.03 -1.17,-1.03 v -0.21 c 1.17,0 2.4,1.48 2.4,2.91 0,0.9 -0.53,1.59 -1.33,1.59 -0.46,0 -0.87,-0.29 -1.16,-0.6 z"
       inkscape:connector-curvature="0"
       style="fill:#000000;stroke-width:0" /><path
       id="path7918"
       d="m 238.36785,638.54399 h 0.0215 0.0215 0.0215 0.0143 0.007 0.0143 l 0.007,0.01 h 0.0143 0.007 0.0144 l 0.007,0.01 h 0.007 0.007 l 0.0143,0.01 0.007,0.01 h 0.007 l 0.007,0.01 0.007,0.01 h 0.007 l 0.007,0.01 0.007,0.01 v 0.01 0 l 0.007,0.01 v 0.01 0 0.01 l 0.007,0.01 v 0 0.01 0.01 0.01 0 0.01 l 0.007,0.01 v 0.01 0.01 c 0,0.2 -0.12911,0.2 -0.25105,0.2 h -3.87326 c -0.12193,0 -0.25104,0 -0.25104,-0.2 0,-0.2 0.12911,-0.2 0.25104,-0.2 z"
       inkscape:connector-curvature="0"
       style="fill:#000000;stroke-width:0" /><path
       id="path7920"
       d="m 243.65424,640.80998 -0.02,0.03 -0.02,0.04 -0.02,0.03 -0.01,0.03 -0.02,0.03 -0.03,0.03 -0.02,0.03 -0.02,0.03 -0.02,0.03 -0.02,0.03 -0.03,0.03 -0.02,0.02 -0.03,0.03 -0.03,0.02 -0.02,0.02 -0.03,0.03 -0.03,0.02 -0.03,0.02 -0.03,0.01 -0.03,0.02 -0.03,0.02 -0.03,0.01 -0.04,0.02 -0.03,0.01 -0.04,0.01 -0.03,0.01 -0.04,0.01 h -0.04 l -0.04,0.01 h -0.04 l -0.04,0.01 h -0.04 c -1.17,0 -2.4,-1.47 -2.4,-2.91 0,-0.94 0.54,-1.59 1.32,-1.59 l 0.02,0.21 c -0.49,0 -0.63,0.55 -0.63,0.94 0,0.5 0.31,1.72 0.54,2.17 0.31,0.59 0.76,0.96 1.16,0.96 0.65,0 0.79,-0.82 0.79,-0.88 0,-0.06 -0.02,-0.12 -0.03,-0.17 l -0.5,-1.94 c -0.05,-0.18 -0.05,-0.2 -0.2,-0.37 -0.44,-0.55 -0.85,-0.71 -1.13,-0.71 l -0.02,-0.21 c 0.2,0 0.7,0.03 1.3,0.74 0.08,-0.42 0.43,-0.74 0.91,-0.74 0.35,0 0.57,0.22 0.73,0.54 0.17,0.36 0.3,0.97 0.3,0.99 0,0.1 -0.09,0.1 -0.12,0.1 -0.09,0 -0.1,-0.04 -0.13,-0.18 -0.18,-0.65 -0.35,-1.24 -0.76,-1.24 -0.27,0 -0.3,0.26 -0.3,0.46 0,0.22 0.02,0.3 0.13,0.74 0.11,0.41 0.13,0.51 0.22,0.89 l 0.36,1.39 c 0.07,0.28 0.07,0.3 0.07,0.34 0,0.17 -0.12,0.27 -0.29,0.27 -0.24,0 -0.39,-0.22 -0.42,-0.44 z"
       inkscape:connector-curvature="0"
       style="fill:#000000;stroke-width:0" /><path
       id="path7922"
       d="m 194.6245,638.70747 h 0.0295 0.0221 0.0221 0.0148 0.007 0.0148 l 0.007,0.01 h 0.0148 0.007 0.007 l 0.0148,0.01 h 0.007 0.007 l 0.0148,0.01 0.007,0.01 h 0.007 l 0.007,0.01 0.007,0.01 h 0.007 l 0.007,0.01 v 0.01 l 0.007,0.01 v 0 0.01 l 0.007,0.01 v 0 0.01 0.01 h 0.007 v 0.01 0.01 0.01 0 0.01 0.01 0.01 0.01 c 0,0.2 -0.13286,0.2 -0.25834,0.2 h -3.97856 c -0.12549,0 -0.25835,0 -0.25835,-0.2 0,-0.2 0.13286,-0.2 0.25835,-0.2 z"
       inkscape:connector-curvature="0"
       style="fill:#000000;stroke-width:0" /><path
       id="path7924"
       d="m 198.305,642.67049 v 0 0 0 0.01 0 0 0 0.01 0 0.01 0 h -0.01 v 0.01 0 0.01 0 l -0.01,0.01 v 0 0.01 h -0.01 v 0.01 0 h -0.01 v 0 0.01 h -0.01 v 0 0 h -0.01 v 0.01 0 h -0.01 v 0 0 h -0.01 v 0 h -0.01 v 0.01 h -0.01 v 0 h -0.01 v 0 h -0.01 v 0 h -0.01 c -0.23,0 -0.96,-0.08 -1.22,-0.1 -0.08,-0.01 -0.19,-0.02 -0.19,-0.2 0,-0.12 0.09,-0.12 0.24,-0.12 0.48,0 0.5,-0.07 0.5,-0.17 0,-0.07 -0.09,-0.4 -0.14,-0.61 l -0.82,-3.24 c -0.12,-0.5 -0.15,-0.66 -0.15,-1.01 0,-0.94 0.52,-1.55 1.26,-1.55 v 0.21 c -0.34,0 -0.67,0.27 -0.67,1.01 0,0.19 0,0.37 0.16,1 l 0.22,0.92 c 0.06,0.21 0.06,0.23 0.15,0.34 0.49,0.65 0.94,0.8 1.2,0.8 0.36,0 0.63,-0.3 0.63,-0.94 0,-0.58 -0.33,-1.73 -0.51,-2.1 -0.33,-0.67 -0.79,-1.03 -1.18,-1.03 v -0.21 c 1.18,0 2.4,1.48 2.4,2.91 0,0.9 -0.52,1.59 -1.32,1.59 -0.46,0 -0.87,-0.29 -1.17,-0.6 z"
       inkscape:connector-curvature="0"
       style="fill:#000000;stroke-width:0" /><path
       id="path7912-5"
       d="m 278.74194,731.57196 v 0.01 0.01 0.0191 0.01 0 0.01 0.01 0.01 0.01 0.01 0.01 0.01 0 0.01 0.01 0 0.01 0.01 0.01 l -0.009,0.01 v 0.01 0.01 l -0.009,0.01 v 0 0.01 l -0.009,0.01 h -0.009 v 0.01 h -0.009 l -0.009,0.01 h -0.009 v 0 h -0.009 v 0 h -0.009 v 0 l -0.009,0.01 h -0.009 v 0 h -0.009 -0.009 v 0 h -0.009 -0.009 -0.009 -0.009 -0.009 -0.009 -0.009 -0.009 -0.009 -0.009 c -0.56235,-0.60282 -1.37365,-0.60282 -1.66865,-0.60282 v -0.29661 c 0.18437,0 0.72831,0 1.20771,0.23921 v -4.93075 c 0,-0.34447 -0.0277,-0.45929 -0.85738,-0.45929 h -0.29502 v -0.29663 c 0.32267,0.0382 1.12474,0.0382 1.48428,0.0382 0.36878,0 1.17082,0 1.49351,-0.0382 v 0.29663 h -0.29258 c -0.8297,0 -0.85737,0.10534 -0.85737,0.45929 z"
       inkscape:connector-curvature="0"
       style="fill:#000000;stroke-width:0" /><path
       id="path7908-2"
       d="m 264.3964,728.43925 h 0.0185 0.0277 0.0368 0.0277 0.0368 0.0368 0.0368 l 0.0461,0.01 h 0.0368 0.0461 0.0368 l 0.0461,0.01 h 0.0461 l 0.0461,0.01 0.10139,0.01 0.10138,0.01 0.0923,0.01 0.10138,0.0191 0.10139,0.0191 0.10139,0.0287 0.0461,0.01 0.0461,0.0191 0.0461,0.01 0.0461,0.0191 0.0461,0.0191 0.0461,0.0191 c 0.64534,0.28706 0.69143,0.84203 0.69143,0.97599 0,0.42101 -0.35032,0.81332 -0.98645,0.81332 v -0.21051 c 0.4333,0 0.68221,-0.27748 0.68221,-0.60281 0,-0.98556 -1.47506,-0.98556 -1.84382,-0.98556 h -0.37798 c 0.35033,1.44484 1.29989,1.58837 1.53959,1.58837 v 0.21051 c -1.0141,0 -2.40619,-0.92815 -2.40619,-2.59307 0,-0.96642 0.54392,-1.71277 1.43818,-1.71277 1.31834,0 2.09276,1.0047 2.09276,1.11952 0,0.0575 -0.0553,0.12439 -0.11062,0.12439 -0.0461,0 -0.0645,-0.0191 -0.11978,-0.0957 -0.72832,-0.9473 -1.7332,-0.9473 -1.84382,-0.9473 -0.70989,0 -0.79286,0.80377 -0.79286,1.10996 0,0.11477 0.009,0.40187 0.1475,0.98555 z"
       inkscape:connector-curvature="0"
       style="fill:#000000;stroke-width:0" /><path
       id="path7908-6"
       d="m 264.1583,760.62721 h 0.0184 0.0278 0.0371 0.0278 0.0369 0.0369 0.0371 l 0.0463,0.01 h 0.0369 0.0463 0.0371 l 0.0463,0.01 h 0.0463 l 0.0463,0.01 0.10167,0.01 0.10167,0.01 0.0925,0.01 0.10178,0.0199 0.10167,0.0199 0.10167,0.0299 0.0463,0.01 0.0463,0.0199 0.0463,0.01 0.0463,0.0199 0.0463,0.0199 0.0463,0.0199 c 0.64757,0.29899 0.69383,0.87702 0.69383,1.01654 0,0.4385 -0.35154,0.8471 -0.98987,0.8471 v -0.21926 c 0.4348,0 0.68457,-0.28899 0.68457,-0.62784 0,-1.0265 -1.48017,-1.0265 -1.8502,-1.0265 h -0.3793 c 0.35155,1.50486 1.3044,1.65434 1.54493,1.65434 v 0.21926 c -1.01761,0 -2.41453,-0.9667 -2.41453,-2.70076 0,-1.00658 0.5458,-1.78392 1.44316,-1.78392 1.32291,0 2.1,1.04644 2.1,1.16601 0,0.0598 -0.0555,0.12957 -0.111,0.12957 -0.0463,0 -0.0647,-0.0199 -0.12019,-0.0996 -0.73083,-0.98664 -1.7392,-0.98664 -1.85021,-0.98664 -0.71235,0 -0.7956,0.83715 -0.7956,1.15606 0,0.11955 0.009,0.41857 0.14802,1.02649 z"
       inkscape:connector-curvature="0"
       style="fill:#000000;stroke-width:0" /><path
       id="path7912-5-9"
       d="m 277.35729,764.23688 v 0.01 0.01 0.0199 0.01 0 0.01 0.01 0.01 0.01 0.01 0.01 0.01 0 0.01 0.01 0 0.01 0.01 0.01 l -0.009,0.01 v 0.01 0.01 l -0.009,0.01 v 0 0.01 l -0.009,0.01 h -0.009 v 0.01 h -0.009 l -0.009,0.01 h -0.009 v 0 h -0.009 v 0 h -0.009 v 0 l -0.009,0.01 h -0.009 v 0 h -0.009 -0.009 v 0 h -0.009 -0.009 -0.009 -0.009 -0.009 -0.009 -0.009 -0.009 -0.009 -0.009 c -0.56431,-0.62787 -1.37841,-0.62787 -1.67443,-0.62787 v -0.30893 c 0.18501,0 0.73083,0 1.21188,0.24916 v -5.1225 c 0,-0.35879 -0.0279,-0.47837 -0.86035,-0.47837 h -0.29604 v -0.30895 c 0.3238,0.0398 1.12865,0.0398 1.48943,0.0398 0.37005,0 1.17487,0 1.49867,-0.0398 v 0.30895 h -0.29604 c -0.83258,0 -0.86035,0.10962 -0.86035,0.47837 z"
       inkscape:connector-curvature="0"
       style="fill:#000000;stroke-width:0" /></g></svg>
